<?xml version="1.0" standalone="no"?>
<!DOCTYPE svg PUBLIC "-//W3C//DTD SVG 20010904//EN"
 "http://www.w3.org/TR/2001/REC-SVG-20010904/DTD/svg10.dtd">
<svg version="1.0" xmlns="http://www.w3.org/2000/svg"
 width="1920.000000pt" height="1200.000000pt" viewBox="0 0 1920.000000 1200.000000"
 preserveAspectRatio="xMidYMid meet">
<metadata>
Created by potrace 1.16
</metadata>
<g transform="translate(0.000000,1200.000000) scale(0.100000,-0.100000)"
fill="#000000" stroke="none">
<path d="M0 6000 l0 -6000 9600 0 9600 0 0 6000 0 6000 -7549 0 -7550 0 -4
-38 -4 -37 -1 38 -2 37 -2045 0 -2045 0 0 -6000z m9008 -933 c10 -11 34 -238
26 -246 -2 -2 -10 1 -17 7 -10 9 -16 9 -25 0 -6 -6 -14 -9 -17 -7 -3 3 -7 62
-10 130 -3 68 -3 118 1 112 8 -18 27 -16 20 2 -7 18 8 20 22 2z m-4098 -1050
c0 -10 5 -15 10 -12 6 3 10 1 10 -4 0 -6 -6 -11 -12 -11 -9 0 -9 -3 1 -9 10
-6 12 -21 8 -50 -3 -25 -1 -41 5 -41 7 0 8 -15 4 -42 -4 -27 -3 -44 5 -48 8
-6 8 -13 0 -29 -9 -17 -16 -19 -30 -11 -24 12 -32 3 -26 -29 5 -26 5 -26 -5
-2 -8 19 -13 21 -25 11 -8 -6 -17 -20 -20 -31 -4 -10 -14 -20 -23 -20 -15 -1
-15 -2 1 -6 9 -2 17 -9 17 -14 0 -17 29 -9 43 11 8 11 16 17 20 14 3 -3 -6
-17 -19 -31 -18 -18 -22 -29 -15 -36 7 -7 16 -6 29 6 13 12 21 14 29 6 13 -13
43 -5 43 12 0 6 -9 13 -20 16 -11 3 -20 10 -20 15 0 6 7 7 16 4 26 -10 46 12
33 36 -10 19 -9 19 23 12 18 -4 39 -7 46 -7 7 0 11 -7 10 -16 -2 -9 -13 -16
-26 -15 -12 0 -22 -3 -22 -8 0 -4 -8 -8 -17 -9 -10 -1 2 -5 26 -10 25 -5 48
-14 51 -20 4 -6 16 -9 26 -6 17 4 17 6 -3 12 -26 8 -27 9 -12 37 11 21 12 21
25 3 12 -16 14 -17 20 -2 10 26 47 20 66 -10 13 -21 18 -24 18 -10 0 17 1 17
19 0 12 -11 18 -28 16 -45 -3 -27 19 -46 30 -28 4 6 1 10 -4 10 -6 0 -11 4
-11 9 0 13 43 10 53 -4 4 -6 11 -5 18 5 8 11 12 12 16 3 2 -7 4 -15 3 -18 -2
-13 32 -38 38 -28 4 6 18 14 31 18 24 7 24 8 5 22 -17 13 -15 14 25 9 41 -5
81 -28 81 -48 0 -13 -28 -9 -33 5 -4 9 -7 9 -17 0 -11 -10 -8 -14 14 -23 24
-9 30 -7 45 12 l18 21 5 -21 c4 -13 0 -23 -8 -26 -8 -3 -14 -11 -14 -17 0 -9
4 -9 14 0 10 8 16 9 21 1 3 -5 16 -10 27 -10 20 0 20 1 5 18 -19 20 -23 52 -7
52 6 0 10 -6 10 -12 1 -17 35 -58 49 -58 7 0 9 10 5 25 -4 15 -2 25 5 25 6 0
11 7 11 15 0 8 3 15 8 15 4 0 8 -23 8 -51 2 -77 41 -104 64 -43 7 16 17 24 32
23 l23 -2 -22 -4 c-25 -5 -32 -33 -9 -33 8 0 21 -3 29 -6 10 -3 17 3 21 20 3
14 11 26 17 26 6 0 9 -6 6 -13 -3 -8 1 -14 9 -14 8 0 14 6 14 14 0 7 4 13 9
13 16 0 41 -31 41 -51 0 -13 7 -19 24 -19 13 0 26 6 29 13 8 22 -5 37 -31 37
-19 0 -23 3 -15 11 6 6 9 19 6 28 -4 13 -3 14 5 1 6 -8 9 -17 7 -21 -6 -9 70
-20 88 -13 9 3 16 -3 20 -16 3 -11 11 -19 17 -18 7 2 15 -3 17 -9 3 -8 -3 -13
-13 -13 -14 0 -16 -2 -5 -12 10 -11 14 -10 21 3 7 11 18 15 36 11 23 -4 26 -2
21 12 -4 10 -7 22 -7 28 0 6 -8 7 -17 4 -16 -5 -16 -4 1 8 16 13 18 25 14 86
-4 62 -3 72 13 81 12 6 19 6 19 0 0 -5 8 -7 18 -5 13 4 18 -2 20 -31 1 -20 7
-45 13 -56 5 -11 7 -24 3 -30 -4 -6 0 -15 7 -20 11 -7 11 -9 1 -9 -8 0 -10 -5
-5 -12 4 -7 8 -17 9 -23 0 -5 2 -16 2 -23 1 -7 7 -10 13 -6 7 4 9 0 5 -12 -3
-11 -1 -25 3 -33 8 -12 12 -12 25 -2 12 10 16 11 16 1 0 -8 9 -10 26 -6 24 6
25 5 22 -26 -3 -28 0 -33 20 -34 25 -1 26 0 12 26 -8 16 -7 19 10 17 15 -1 18
-6 14 -20 -5 -16 -1 -18 33 -17 61 3 65 2 58 -20 -8 -24 2 -60 16 -60 6 0 8
10 4 23 l-6 22 19 -22 c24 -28 32 -20 32 29 0 42 16 50 30 16 7 -18 9 -19 9
-5 1 17 12 22 25 10 3 -4 13 -8 21 -9 8 -1 28 -9 44 -17 28 -14 30 -14 33 5 4
29 58 35 58 7 0 -10 5 -19 10 -19 6 0 10 8 10 18 0 13 2 14 9 3 5 -8 16 -11
29 -7 14 5 27 0 41 -15 12 -13 21 -26 21 -31 0 -4 14 -5 30 -1 21 4 30 2 30
-7 0 -7 8 -19 18 -27 9 -7 13 -13 7 -12 -27 4 -27 -3 -1 -26 19 -16 32 -21 36
-15 5 8 15 8 35 0 21 -8 33 -7 50 4 13 8 25 12 29 9 9 -10 7 -43 -3 -43 -5 0
-11 -9 -14 -20 -3 -13 0 -20 9 -20 8 0 14 9 14 20 0 10 9 24 20 30 11 6 18 15
15 20 -3 5 -1 11 4 14 5 4 12 -3 16 -14 9 -29 41 -25 49 6 5 20 10 23 20 15
11 -9 17 -4 30 24 20 42 24 44 19 8 -4 -25 -1 -28 22 -28 19 0 25 4 22 17 -3
11 0 15 9 11 8 -3 14 -10 14 -15 0 -6 6 -5 15 2 8 7 24 10 35 7 15 -4 20 0 20
13 0 14 5 17 22 12 14 -3 19 -2 14 6 -8 14 -4 15 18 6 9 -3 16 -14 17 -23 1
-9 4 -5 8 9 7 24 41 42 41 21 0 -6 -7 -11 -16 -11 -8 0 -13 -4 -10 -9 6 -9 97
-5 125 4 10 4 12 -2 8 -22 -4 -16 -4 -22 -1 -16 4 10 10 10 27 1 27 -15 56
-17 63 -6 7 11 64 10 64 -1 0 -5 11 -8 25 -8 14 0 25 3 25 8 0 18 21 8 30 -13
8 -21 9 -21 10 -3 0 16 2 17 9 6 7 -11 13 -12 23 -4 7 6 46 10 86 10 65 -2 72
-4 68 -20 -3 -13 0 -16 14 -12 11 3 20 0 24 -10 3 -9 10 -13 16 -10 5 3 10 1
10 -4 0 -15 47 -14 61 2 13 14 69 11 69 -4 0 -5 5 -9 10 -9 6 0 10 6 9 13 -3
24 1 37 12 37 6 0 9 -7 5 -15 -3 -9 0 -15 10 -15 10 0 14 6 11 14 -4 9 3 16
18 20 15 4 22 11 19 20 -3 8 0 17 6 21 7 4 14 -2 17 -14 4 -17 13 -21 50 -21
24 0 49 -5 56 -10 7 -6 24 -19 40 -31 27 -21 36 -52 17 -64 -12 -7 -4 -25 11
-25 5 0 9 7 9 15 0 20 16 19 24 -2 5 -13 9 -14 15 -5 6 10 11 9 21 -3 11 -14
10 -17 -8 -22 -12 -3 -22 -13 -21 -22 0 -10 2 -11 6 -3 2 6 21 12 41 12 33 1
35 2 20 14 -10 7 -18 18 -18 25 0 6 -5 11 -10 11 -7 0 -7 6 -1 19 12 22 -13
50 -45 52 -14 0 -11 3 9 11 23 8 31 7 42 -8 13 -18 14 -18 15 -1 0 25 19 21
30 -8 5 -14 14 -25 20 -25 6 0 8 5 5 10 -3 6 -1 10 5 10 7 0 9 -7 6 -16 -3 -9
-4 -20 -1 -25 8 -13 33 13 28 28 -3 7 2 13 11 13 9 0 19 -8 23 -17 12 -35 24
-43 44 -32 13 6 19 6 19 -1 0 -5 7 -10 16 -10 8 0 12 5 9 10 -3 6 -1 10 4 10
6 0 11 -5 11 -11 0 -6 7 -4 15 5 9 8 22 13 30 9 11 -3 19 5 26 25 7 20 15 29
25 25 8 -3 14 0 14 6 0 7 8 7 26 0 28 -10 64 -4 64 12 0 15 19 10 40 -11 19
-19 19 -20 -10 -16 -19 2 -30 -1 -30 -9 0 -15 25 -26 43 -19 8 3 20 -2 27 -11
18 -22 33 -18 27 8 -6 21 -5 21 8 4 11 -15 17 -17 34 -7 17 9 22 8 27 -5 5
-13 9 -13 22 -3 12 10 16 10 19 1 7 -19 21 -16 26 5 3 9 5 -4 6 -30 0 -27 5
-48 11 -48 5 0 7 13 4 29 -10 48 50 53 62 5 4 -17 13 -24 31 -24 22 0 25 4 21
25 -4 17 -1 25 8 25 8 0 14 -5 14 -10 0 -6 10 -15 23 -20 17 -7 18 -9 5 -9
-10 -1 -28 -11 -39 -22 l-22 -22 26 5 c15 3 24 1 21 -4 -3 -5 -3 -22 1 -38 8
-39 29 -27 21 11 -3 16 -2 29 3 29 5 0 11 -16 14 -35 3 -19 15 -45 27 -57 21
-23 21 -23 36 -3 9 11 19 19 24 18 4 -1 14 5 22 14 11 15 11 16 -4 10 -22 -8
-22 1 -3 27 15 20 15 20 16 0 0 -11 3 -14 6 -6 3 7 0 19 -6 26 -14 16 -4 26
26 26 23 0 23 1 9 22 -14 20 -14 24 1 40 9 10 22 18 30 18 12 0 17 15 16 48
-1 6 3 12 7 12 4 0 7 19 6 43 -1 23 4 59 11 80 7 20 13 39 13 42 4 29 40 52
40 25 0 -5 6 -10 14 -10 16 0 39 -77 25 -86 -5 -3 -2 -16 7 -29 9 -14 13 -32
10 -42 -4 -9 -1 -20 6 -25 9 -5 8 -8 -6 -8 -15 0 -16 -3 -6 -15 9 -10 9 -15 1
-15 -6 0 -11 -9 -11 -19 0 -21 -26 -35 -43 -24 -7 5 -21 8 -32 8 -14 0 -19 6
-17 18 4 22 -14 22 -22 0 -7 -17 9 -33 32 -33 6 0 12 -6 12 -14 0 -8 7 -16 15
-20 9 -3 15 0 15 10 0 11 9 14 38 12 32 -3 37 0 40 20 2 12 8 22 13 22 6 0 8
-8 4 -19 -4 -15 0 -18 25 -17 35 1 39 11 8 20 l-23 7 23 11 c17 8 26 9 30 1 4
-6 15 -7 30 -2 22 8 31 29 12 29 -5 0 -10 -4 -10 -10 0 -5 -7 -10 -15 -10 -8
0 -15 5 -15 10 0 6 5 10 10 10 6 0 10 7 10 15 0 9 6 12 15 9 10 -4 13 -2 10 8
-7 19 20 44 30 28 4 -6 4 -22 1 -36 -9 -36 23 -31 37 6 6 17 19 33 29 36 36
11 19 26 -22 19 -26 -4 -40 -3 -40 4 0 6 8 11 18 11 19 0 19 3 12 220 0 8 2
33 5 55 4 22 7 46 7 54 1 10 6 8 16 -7 18 -27 32 -28 32 -2 0 14 6 20 23 19
12 0 16 -3 9 -6 -6 -2 -10 -9 -6 -14 10 -16 23 -10 26 13 2 17 10 22 33 22 29
0 29 0 32 -64 2 -36 6 -76 9 -90 6 -25 6 -24 20 9 9 22 19 31 29 28 8 -4 17
-2 20 3 10 16 25 11 26 -7 1 -17 2 -17 6 0 2 9 13 17 23 17 10 0 20 9 23 20 6
22 27 28 27 8 0 -7 16 -26 36 -42 28 -22 34 -33 30 -52 -7 -28 8 -32 23 -6 9
16 10 16 17 -2 7 -19 -17 -46 -41 -46 -9 0 -9 -14 1 -52 8 -29 12 -60 9 -69
-3 -9 4 -28 16 -42 11 -15 17 -27 13 -27 -4 0 -5 -3 -1 -6 3 -4 14 1 23 11 17
16 18 16 31 -1 12 -16 13 -16 13 9 0 28 14 34 40 17 12 -8 11 -10 -8 -10 -19
0 -21 -4 -16 -24 3 -13 1 -27 -5 -30 -16 -10 -13 -26 4 -26 8 0 15 9 15 20 0
16 6 19 30 17 29 -4 55 -17 32 -17 -7 0 -12 -7 -12 -16 0 -14 3 -14 15 -4 12
10 18 10 29 1 10 -9 16 -9 21 -1 4 6 14 9 22 6 8 -3 26 -3 39 0 23 6 23 7 7
20 -17 12 -17 13 5 14 12 0 22 -4 22 -10 0 -5 5 -10 11 -10 6 0 9 6 6 14 -6
15 36 31 53 21 5 -3 11 3 13 12 2 10 3 6 1 -9 -3 -22 1 -28 16 -28 13 0 17 5
14 14 -4 11 1 14 23 12 15 -2 34 1 41 7 12 10 26 4 28 -14 1 -5 2 -13 3 -19 0
-5 9 -10 19 -10 14 0 15 2 2 10 -12 7 -12 12 -2 22 9 9 12 9 12 0 0 -7 9 -12
20 -12 11 0 20 -5 20 -10 0 -7 6 -7 20 0 11 6 20 7 20 1 0 -22 35 -21 52 1 13
18 20 20 29 11 16 -16 4 -43 -20 -43 -23 0 -36 -16 -21 -25 6 -4 28 8 51 25
22 18 39 28 38 24 -1 -5 -1 -16 0 -24 1 -12 4 -11 18 2 13 14 14 20 3 32 -7 9
-8 16 -2 16 14 0 22 -24 15 -52 -4 -13 -2 -20 3 -15 5 5 10 12 10 15 10 51 34
64 34 19 0 -23 -34 -52 -50 -42 -6 3 -18 1 -27 -4 -16 -9 -16 -10 5 -11 15 0
22 -6 22 -20 0 -13 5 -18 15 -14 10 4 15 0 15 -14 0 -11 -8 -23 -17 -25 -11
-3 -7 -5 10 -6 15 0 41 -8 57 -16 18 -9 40 -13 55 -9 31 8 33 24 3 25 l-23 2
23 4 c12 2 22 11 22 19 0 8 5 14 10 14 6 0 10 -5 10 -11 0 -6 6 -9 14 -6 8 3
20 -1 26 -9 7 -8 22 -14 34 -15 21 0 21 0 -1 -16 -13 -8 -23 -24 -23 -35 0
-17 5 -20 35 -16 19 2 35 0 35 -4 0 -4 8 -8 18 -8 10 0 25 -11 32 -25 21 -39
35 -31 31 18 -3 21 15 22 52 3 22 -12 27 -13 27 -1 0 7 -8 16 -17 18 -10 2 1
2 24 0 24 -2 49 -1 55 4 16 10 68 11 68 1 0 -20 29 8 32 30 2 16 9 27 18 27
12 0 17 -21 23 -95 5 -52 13 -99 18 -105 7 -7 8 -4 3 9 -4 11 -2 21 7 27 11 6
11 11 1 21 -6 6 -11 28 -11 48 1 22 3 28 7 15 l5 -20 8 20 c6 15 8 16 8 4 1
-19 41 -33 55 -19 6 6 5 15 -3 23 -9 12 -7 13 14 9 18 -3 24 0 22 9 -2 8 -2
11 0 6 3 -4 9 -5 14 -1 15 9 10 -6 -7 -23 -19 -19 -3 -33 28 -25 17 4 18 1 12
-24 -9 -39 -13 -44 -30 -44 -8 0 -14 -4 -14 -10 0 -10 18 -6 60 13 35 16 34
15 21 31 -21 25 -2 41 20 17 10 -11 19 -25 19 -31 0 -5 10 -10 23 -10 29 0 47
-18 47 -47 0 -13 5 -23 10 -23 6 0 10 7 10 15 0 19 17 19 36 0 9 -8 12 -15 7
-15 -4 0 5 -7 21 -15 35 -18 36 -18 36 -1 0 8 -6 17 -12 19 -7 3 -3 6 9 6 12
1 25 6 29 12 4 8 0 9 -15 4 -18 -6 -20 -3 -17 25 4 36 16 53 16 23 0 -13 8
-23 21 -26 25 -7 69 8 69 23 0 5 5 10 12 10 9 0 9 -3 0 -12 -15 -15 3 -39 24
-31 8 3 14 0 14 -7 0 -6 -4 -8 -10 -5 -5 3 -10 -1 -10 -9 0 -17 29 -11 42 8 4
6 11 7 15 2 4 -5 2 -11 -4 -13 -7 -3 -13 -9 -13 -15 0 -6 7 -8 15 -4 18 7 45
-2 45 -15 0 -6 -8 -5 -19 1 -12 6 -22 6 -26 1 -8 -14 15 -26 50 -26 20 0 30
-5 30 -15 0 -28 36 -48 71 -40 38 9 44 5 44 -26 0 -17 4 -22 15 -18 18 7 20
-12 3 -20 -7 -3 -3 -3 8 -1 13 3 28 -1 37 -10 22 -21 30 -19 17 5 -11 20 3 30
15 10 4 -6 10 -8 15 -5 5 3 14 -3 20 -12 10 -16 10 -16 5 3 -5 18 -2 20 27 16
29 -4 31 -3 16 9 -25 19 -10 73 20 77 12 2 22 8 22 13 0 5 5 9 10 9 7 0 7 -6
0 -20 -9 -18 -8 -20 15 -20 15 0 24 4 20 9 -3 6 3 15 14 20 27 15 31 14 31 -6
0 -15 2 -15 19 1 15 14 24 15 40 7 27 -15 41 -14 41 3 0 16 20 26 46 22 15 -2
20 -15 25 -60 4 -32 11 -62 17 -68 6 -6 8 -18 5 -27 -4 -11 -1 -10 10 4 8 10
13 30 11 42 -4 19 0 23 20 23 14 0 29 -6 33 -14 9 -16 147 -28 160 -15 5 5 15
4 23 -1 10 -7 11 -10 3 -10 -7 0 -13 -6 -13 -14 0 -9 11 -13 32 -12 28 1 33
-3 38 -29 4 -20 11 -30 23 -29 9 1 14 -2 11 -7 -3 -5 0 -9 7 -9 10 0 10 -3 1
-12 -16 -16 -15 -25 4 -32 15 -6 44 14 44 32 0 5 12 14 27 21 20 9 28 9 34 0
5 -9 16 -8 42 5 20 9 39 15 44 14 10 -3 85 22 96 32 5 4 -3 5 -17 3 -43 -9
-30 15 15 27 28 8 39 16 35 25 -2 7 1 19 9 25 18 15 61 8 57 -9 -1 -7 6 -15
17 -18 13 -3 18 -10 14 -21 -5 -11 -2 -14 10 -9 11 4 17 1 17 -9 0 -12 10 -14
42 -12 47 3 61 23 26 38 -22 10 -22 10 3 5 29 -5 66 24 41 32 -13 5 -7 23 9
23 5 0 9 -13 9 -30 0 -16 5 -30 12 -30 6 0 9 -3 5 -6 -3 -3 4 -15 15 -26 11
-11 17 -27 14 -36 -4 -13 -2 -12 10 3 8 11 22 19 30 17 8 -2 28 5 45 15 30 18
30 18 47 -5 12 -16 29 -23 59 -25 23 -1 45 -6 48 -9 4 -4 14 -4 23 -1 10 4 13
2 8 -5 -5 -8 0 -12 13 -12 12 0 21 -6 21 -14 0 -19 45 -15 69 6 9 8 23 12 30
10 7 -2 17 1 21 8 9 14 50 -25 50 -47 0 -16 16 -17 26 -2 4 8 9 8 17 0 15 -15
30 -14 24 2 -2 6 -1 21 4 32 6 17 8 17 8 3 1 -14 9 -18 39 -16 63 2 93 -2 87
-11 -3 -6 7 -6 27 0 18 5 35 14 36 19 2 6 12 10 23 10 19 0 63 75 54 91 -6 9
53 28 81 25 28 -3 52 -27 47 -47 -5 -18 29 -36 56 -30 8 1 18 -3 23 -11 8 -10
9 -9 5 3 -4 13 4 16 41 17 67 1 112 -7 112 -21 0 -16 83 -42 88 -28 5 14 32
14 32 1 0 -5 7 -10 16 -10 8 0 12 4 9 10 -3 5 -1 18 4 27 10 17 10 17 11 1 0
-10 8 -19 18 -19 16 -1 16 -2 0 -6 -10 -3 -18 -14 -18 -26 0 -18 2 -19 10 -7
9 13 11 13 20 0 8 -13 11 -12 23 4 10 14 16 16 21 7 6 -9 11 -9 22 0 18 15 32
3 16 -13 -7 -7 -12 -18 -12 -25 0 -18 49 -17 56 1 9 25 68 -9 62 -35 -2 -6 3
-14 10 -16 10 -4 13 2 10 18 -2 17 2 24 13 23 11 -1 15 5 12 16 -3 10 2 20 11
23 10 4 13 1 9 -8 -3 -8 2 -18 11 -21 15 -6 15 -8 -1 -20 -16 -12 -15 -13 16
-14 24 0 32 4 28 14 -4 9 0 13 11 11 9 -2 19 -4 21 -4 3 -1 -3 -7 -13 -14 -16
-12 -16 -14 -2 -26 14 -12 19 -11 36 4 11 10 17 22 14 27 -3 4 -2 7 3 6 4 -1
33 6 63 16 38 14 55 16 58 7 2 -6 12 -11 23 -11 10 0 18 -3 18 -8 -5 -29 3
-42 26 -42 18 0 25 -5 25 -20 0 -12 -7 -20 -17 -20 -15 0 -13 -4 7 -19 13 -11
28 -18 31 -15 4 2 14 1 23 -2 22 -9 20 -33 -2 -27 -12 3 -18 -2 -19 -16 -1
-12 4 -21 10 -21 19 0 39 -37 24 -44 -7 -3 4 -4 23 -3 27 2 36 7 41 27 5 22 7
23 14 7 4 -9 5 -26 2 -37 -8 -29 10 -24 27 7 11 21 15 23 16 10 0 -11 6 -17
18 -15 14 2 17 -5 17 -42 0 -42 -8 -59 -28 -60 -5 0 -5 5 -2 11 4 6 -2 13 -14
16 -27 7 -27 23 -1 23 11 0 20 4 20 9 0 10 -33 8 -93 -4 -26 -5 -37 -12 -35
-23 2 -10 -5 -18 -17 -20 -19 -4 -37 -24 -35 -38 1 -3 -7 -12 -17 -21 -13 -10
-15 -16 -5 -19 6 -3 12 -10 12 -15 0 -6 -7 -6 -18 0 -17 9 -23 43 -10 56 3 3
0 21 -6 40 l-11 35 -74 0 c-59 0 -72 -3 -68 -14 3 -8 -1 -20 -8 -26 -20 -17
-6 -40 44 -75 42 -29 54 -50 24 -41 -10 2 -28 7 -40 11 -18 5 -23 2 -23 -11 0
-10 -7 -26 -17 -36 -10 -12 -12 -18 -4 -18 7 0 9 -5 6 -10 -4 -6 -31 -10 -61
-8 -48 3 -54 5 -54 26 0 12 -4 22 -9 22 -5 0 -16 3 -25 6 -11 4 -16 1 -16 -10
0 -14 -2 -15 -14 -4 -10 10 -11 16 -3 27 6 7 16 23 22 35 6 11 22 23 35 24 14
2 39 17 57 33 l33 29 -20 20 c-11 11 -20 24 -20 29 0 10 -61 24 -69 15 -3 -3
2 -10 12 -15 25 -14 10 -32 -22 -25 -14 3 -20 3 -13 0 23 -11 12 -26 -14 -20
-15 4 -23 3 -20 -3 6 -8 -53 -45 -60 -38 -2 1 1 20 6 42 11 48 13 117 3 142
-6 15 -8 13 -13 -11 -3 -16 -11 -31 -19 -34 -10 -3 -12 0 -8 12 4 9 3 16 -2
16 -11 0 -29 -39 -34 -75 -11 -65 -18 -90 -31 -100 -7 -5 -11 -16 -9 -22 3 -8
-4 -13 -16 -13 -15 0 -21 -7 -22 -22 -1 -16 -3 -18 -6 -6 -7 27 -52 32 -73 8
-15 -17 -19 -18 -24 -5 -8 21 -22 19 -45 -6 -10 -11 -40 -31 -66 -44 -38 -20
-47 -21 -52 -9 -6 16 -73 17 -73 1 0 -4 -9 -5 -20 -2 -11 4 -20 2 -20 -4 0
-16 -26 -13 -44 4 -19 19 -36 19 -36 0 0 -8 -4 -15 -10 -15 -5 0 -10 4 -10 9
0 5 -17 5 -39 -1 -24 -6 -38 -15 -35 -22 3 -7 -7 -18 -21 -26 -14 -7 -23 -15
-21 -17 2 -2 -9 -16 -23 -32 l-26 -28 -22 21 c-13 11 -23 27 -23 34 0 9 -9 12
-29 9 -23 -4 -30 -1 -34 14 -7 25 -27 24 -27 -1 0 -11 4 -20 9 -20 5 0 11 -7
14 -15 5 -11 0 -13 -26 -8 -18 3 -34 9 -37 12 -3 3 -14 13 -24 21 -18 14 -19
13 -13 -4 7 -17 3 -18 -32 -13 -31 4 -38 2 -34 -9 3 -10 0 -12 -10 -9 -8 4
-17 -1 -21 -10 -4 -12 -14 -14 -40 -10 -22 5 -36 3 -41 -5 -6 -9 -10 -9 -16 1
-6 10 -9 11 -9 2 0 -8 -14 -13 -35 -13 -21 0 -35 5 -35 13 0 8 -4 7 -10 -3 -8
-13 -12 -12 -25 8 -17 23 -49 29 -61 11 -4 -8 -9 -7 -16 2 -7 11 -11 11 -15 1
-8 -20 -21 -14 -35 15 -9 19 -22 28 -38 29 -13 1 -26 6 -28 12 -4 12 -42 4
-42 -9 0 -5 10 -10 23 -10 20 -1 20 -2 2 -6 -11 -2 -30 -9 -42 -15 -38 -19
-87 12 -99 65 -1 4 -2 8 -4 10 -1 1 -4 16 -6 32 -5 31 -30 58 -46 49 -4 -3 -5
-16 -2 -30 4 -14 2 -24 -5 -24 -7 0 -11 22 -11 56 0 51 -2 55 -21 52 -23 -3
-27 -17 -33 -138 -2 -36 -4 -70 -5 -77 -2 -17 -41 -3 -41 15 0 13 -3 13 -12 4
-7 -7 -15 -41 -18 -74 -7 -90 -25 -83 -26 10 0 53 -4 77 -13 77 -6 0 -15 5
-19 12 -4 6 -24 11 -45 11 -21 0 -45 6 -53 13 -13 10 -17 10 -24 -1 -6 -10
-14 -7 -34 15 l-26 28 -15 -37 c-12 -28 -13 -41 -5 -51 8 -10 8 -15 -1 -20 -6
-4 -15 -1 -20 6 -7 11 -9 10 -9 -5 0 -14 -5 -17 -24 -12 -15 4 -28 0 -36 -10
-11 -12 -15 -12 -21 -2 -7 10 -9 10 -9 1 0 -7 -9 -13 -19 -13 -12 0 -20 -7
-20 -17 1 -20 -7 -65 -17 -103 -16 -66 -16 -80 0 -80 9 0 16 -5 16 -11 0 -6
-7 -9 -14 -6 -18 7 -76 -20 -77 -36 -1 -7 -1 -25 -1 -42 0 -24 -1 -25 -5 -7
-2 13 -11 26 -19 29 -8 3 -11 9 -8 14 3 5 -6 9 -20 9 -14 0 -26 -4 -26 -10 0
-5 -11 0 -25 12 -19 16 -22 24 -14 35 7 8 8 13 1 13 -5 0 -15 -7 -22 -15 -7
-8 -9 -15 -4 -15 10 0 -25 -31 -54 -47 -27 -16 -40 1 -18 23 20 19 20 19 0 49
-9 14 -25 25 -35 25 -11 0 -22 7 -25 15 -4 8 -10 12 -15 9 -13 -7 2 30 15 38
7 5 5 12 -7 20 -22 16 -13 48 12 48 10 0 18 7 18 15 0 8 -4 12 -9 9 -19 -12
-29 8 -14 31 14 21 16 60 4 80 -3 6 -8 23 -12 38 -6 23 -10 27 -21 17 -8 -6
-22 -10 -32 -8 -10 1 -24 -2 -32 -7 -10 -5 -16 -4 -19 3 -6 19 -22 14 -22 -7
0 -29 -59 -84 -83 -77 -14 3 -18 0 -14 -13 2 -11 -4 -23 -15 -30 -10 -6 -16
-17 -12 -22 4 -6 0 -15 -7 -20 -9 -6 -10 -12 -4 -17 19 -13 10 -63 -17 -95
-28 -35 -41 -34 -31 1 3 13 13 22 24 22 11 0 19 5 19 10 0 6 -4 10 -10 10 -5
0 -7 7 -3 17 5 13 2 15 -16 10 -27 -7 -39 16 -21 38 7 9 11 18 8 20 -8 9 -38
-6 -38 -19 -1 -6 -7 0 -15 14 -8 14 -14 19 -15 12 0 -10 -8 -12 -30 -7 -17 4
-29 3 -28 -2 5 -14 -39 -63 -56 -63 -9 0 -16 5 -16 10 0 6 9 10 20 10 11 0 20
5 20 10 0 6 -13 10 -30 10 -24 0 -30 4 -30 23 0 18 -2 19 -10 7 -8 -13 -10
-13 -10 1 0 9 -7 22 -15 29 -9 7 -14 19 -11 27 3 7 2 13 -3 13 -4 0 -13 17
-20 38 -13 38 -51 58 -51 26 0 -19 -17 -18 -30 4 -8 14 -9 12 -4 -10 5 -23 3
-26 -15 -21 -14 4 -20 11 -16 22 3 10 -4 22 -17 30 -18 11 -20 11 -15 -3 3 -8
-3 -25 -13 -38 -16 -19 -19 -20 -20 -6 0 9 -3 24 -6 32 -4 11 -2 15 7 11 8 -3
20 4 27 15 11 18 10 20 -8 20 -28 0 -25 27 3 34 32 8 31 52 -1 50 -13 -1 -22
5 -22 12 0 8 -9 23 -20 34 -19 19 -22 19 -60 4 -22 -9 -47 -14 -55 -10 -27 10
-16 -22 18 -54 17 -18 27 -34 21 -36 -6 -3 -9 -16 -6 -29 2 -15 0 -25 -7 -25
-6 0 -11 10 -11 22 0 20 -1 20 -18 5 -10 -10 -22 -14 -26 -10 -4 5 -6 1 -4 -7
2 -10 -9 -16 -38 -20 -32 -5 -41 -3 -37 7 3 7 9 13 15 13 5 0 6 5 3 10 -4 6
-14 1 -26 -12 -16 -19 -20 -21 -28 -8 -14 21 -23 7 -15 -24 5 -21 10 -25 30
-20 16 4 24 2 24 -6 0 -7 8 -18 17 -25 15 -11 15 -15 4 -29 -8 -9 -11 -20 -7
-23 4 -4 11 -1 15 6 10 16 31 6 31 -15 0 -8 4 -14 9 -14 4 0 7 12 4 28 -3 26
-3 26 8 5 16 -30 33 -29 27 1 -3 15 -1 23 6 20 6 -2 29 3 51 10 35 13 41 13
52 -1 7 -8 17 -12 24 -7 8 4 10 3 5 -4 -5 -8 2 -12 18 -12 14 0 26 -5 26 -12
0 -6 8 -20 17 -30 11 -12 17 -37 17 -73 1 -30 0 -51 -2 -46 -2 5 -13 7 -25 4
-18 -4 -19 -3 -7 6 12 9 11 11 -8 11 -17 0 -22 -5 -20 -17 1 -10 -1 -24 -6
-31 -6 -10 -11 -9 -21 5 -13 17 -14 17 -34 -1 -13 -12 -19 -26 -16 -37 12 -38
-85 -94 -105 -61 -9 16 -11 15 -25 -3 -10 -12 -12 -21 -5 -23 6 -2 -1 -12 -14
-23 -29 -23 -36 -24 -36 -4 0 8 -4 15 -10 15 -14 0 -50 -89 -50 -125 0 -29 3
-32 25 -27 18 3 25 0 25 -11 0 -16 -20 -27 -51 -27 -13 0 -19 -7 -19 -24 0
-35 -10 -56 -26 -56 -9 0 -14 12 -14 35 0 21 5 35 12 35 9 0 9 3 1 11 -12 12
1 75 18 94 5 5 9 16 9 24 0 11 -4 10 -15 -5 -14 -17 -17 -18 -27 -2 -11 14
-13 14 -30 -7 -10 -13 -18 -30 -18 -39 0 -9 -6 -16 -12 -17 -10 0 -10 -2 0 -6
6 -2 12 -12 13 -21 0 -13 3 -11 11 6 16 32 28 27 28 -11 0 -43 -6 -48 -38 -31
-20 10 -28 11 -34 1 -5 -7 -6 2 -2 18 4 17 3 27 -1 23 -4 -4 -17 -2 -28 4 -17
8 -23 6 -39 -13 -17 -20 -19 -21 -13 -4 16 44 17 55 6 55 -6 0 -11 13 -11 29
0 23 -4 28 -18 24 -15 -3 -18 -14 -18 -50 1 -25 -2 -47 -6 -50 -5 -2 -8 -14
-8 -27 0 -32 -20 -87 -30 -81 -10 6 -21 -65 -14 -93 4 -13 13 -21 23 -20 11 2
15 -3 13 -17 -2 -11 -3 -27 -4 -35 -1 -24 -19 -40 -44 -40 -12 0 -25 -4 -28
-9 -10 -15 48 -7 61 9 14 18 26 9 18 -13 -7 -18 -35 -26 -72 -22 -16 2 -33 -4
-41 -14 -12 -14 -13 -11 -8 21 3 24 1 37 -6 35 -6 -1 -14 9 -18 23 -3 14 -11
25 -18 25 -7 0 -16 5 -20 11 -4 6 -15 13 -25 17 -13 5 -17 15 -14 42 3 20 0
38 -6 42 -5 3 -7 24 -4 48 4 26 2 47 -6 55 -9 10 -9 11 1 6 8 -5 12 0 12 13 0
11 5 23 10 26 6 4 10 -8 10 -29 0 -25 4 -36 15 -36 8 0 15 -7 15 -15 0 -8 5
-15 10 -15 6 0 10 7 10 15 0 8 7 15 15 15 19 0 19 -14 1 -29 -19 -16 -27 -61
-10 -61 7 0 14 -6 17 -12 3 -9 9 -7 20 7 8 11 13 23 11 27 -3 4 1 28 7 53 14
54 9 62 -24 41 -21 -15 -26 -15 -37 -1 -7 8 -9 23 -5 32 6 17 7 17 21 -1 18
-25 32 -12 16 14 -7 11 -12 23 -12 27 0 5 5 0 11 -10 6 -9 15 -15 20 -12 5 4
7 10 4 15 -5 7 24 24 31 18 1 -2 5 -15 7 -28 3 -14 8 -34 12 -45 5 -14 4 -16
-3 -7 -7 11 -10 8 -14 -11 -7 -34 7 -57 17 -28 3 11 13 21 21 21 16 0 19 36 4
45 -6 4 -8 15 -5 25 3 9 1 29 -4 44 l-11 26 -32 -20 c-38 -23 -71 -26 -86 -7
-6 7 -16 35 -22 62 -11 47 -33 85 -51 85 -11 0 -2 -91 10 -103 5 -5 7 -16 4
-23 -3 -8 0 -20 5 -27 8 -10 6 -13 -11 -14 -12 -1 -23 -7 -25 -13 -3 -7 -8 -8
-16 -1 -7 6 -18 6 -26 1 -11 -7 -11 -11 -1 -24 7 -9 17 -13 22 -10 5 3 9 1 9
-5 0 -5 -4 -12 -10 -16 -5 -3 -7 -11 -4 -18 2 -7 -5 -18 -16 -25 -20 -12 -26
-6 -21 22 1 5 -8 20 -21 33 -17 18 -18 23 -5 17 15 -5 17 2 17 67 l0 72 -25
-23 c-21 -20 -25 -33 -26 -84 0 -34 -4 -70 -8 -81 -5 -11 -4 -25 1 -32 7 -9 7
-13 0 -13 -5 0 -13 7 -16 16 -3 8 -10 13 -16 9 -8 -5 -27 88 -22 107 1 5 -7 8
-18 8 -13 0 -22 -9 -26 -27 -4 -16 -11 -33 -16 -40 -5 -6 -6 -32 -3 -56 5 -29
3 -47 -4 -51 -7 -5 -11 4 -11 23 0 17 -4 31 -9 31 -20 0 -23 41 -5 61 9 10 13
19 8 19 -5 0 -3 4 5 9 14 9 7 71 -9 71 -10 0 -22 -29 -15 -40 8 -13 -9 -20
-24 -11 -11 7 -11 15 0 46 8 21 19 39 25 42 7 2 9 13 7 24 -4 15 -2 18 11 13
16 -6 22 7 9 20 -5 4 -9 16 -9 27 -4 53 -4 54 -13 41 -4 -7 -6 -24 -3 -38 3
-17 0 -24 -12 -24 -9 0 -16 7 -16 15 0 22 -18 18 -25 -6 -6 -17 -9 -19 -16 -8
-7 11 -9 9 -9 -6 -1 -19 -42 -75 -55 -75 -3 0 -4 10 -3 23 2 12 -1 23 -6 24
-5 1 -12 6 -16 13 -4 6 -7 -8 -6 -33 1 -40 3 -43 25 -39 16 3 22 1 17 -7 -4
-6 -18 -11 -32 -11 -16 0 -24 -6 -24 -17 0 -14 -2 -14 -20 2 -11 10 -20 13
-20 7 0 -7 5 -12 10 -12 6 0 10 -7 10 -15 0 -11 -5 -12 -25 -5 l-25 10 5 -53
5 -52 -20 60 c-11 33 -23 75 -26 93 -9 45 -28 41 -21 -5 3 -21 8 -46 12 -55 5
-13 2 -18 -8 -18 -9 0 -18 -8 -21 -17 -3 -10 -4 6 -3 36 1 31 -3 56 -9 58 -11
4 -34 -80 -34 -123 0 -14 -4 -22 -10 -19 -5 3 -10 15 -10 26 0 10 -4 19 -9 19
-17 0 -22 -19 -11 -40 8 -15 8 -20 -3 -20 -16 0 -43 -47 -33 -57 4 -4 11 -1
16 7 11 17 13 9 4 -13 -4 -13 -13 -12 -57 7 -63 26 -68 32 -60 75 4 24 2 32
-6 27 -6 -4 -11 -14 -11 -22 0 -8 -6 -14 -14 -14 -8 0 -13 10 -12 27 1 24 6
28 33 30 31 3 32 2 26 -34 -5 -28 -2 -39 12 -49 32 -24 42 -16 49 36 7 52 24
100 36 100 3 0 11 -5 18 -12 9 -9 15 -2 28 28 8 21 25 46 36 55 14 11 19 23
15 33 -6 15 -10 14 -32 -8 -14 -15 -34 -26 -45 -26 -10 0 -22 -5 -26 -11 -4
-8 -9 -8 -17 0 -8 8 -7 15 4 27 9 9 14 25 11 40 -5 26 -22 33 -22 10 0 -8 -5
-18 -12 -22 -8 -5 -9 5 -5 36 8 65 -4 86 -53 93 -36 5 -46 2 -65 -19 -30 -32
-43 -30 -48 9 -3 17 -3 -1 -2 -41 2 -62 0 -72 -14 -70 -11 2 -18 19 -22 58 -3
30 -7 48 -9 40 -1 -8 -1 -21 0 -29 1 -8 -4 -17 -11 -22 -9 -5 -8 -12 6 -25 17
-17 17 -18 -1 -25 -11 -4 -14 -8 -7 -8 14 -1 5 -36 -13 -52 -12 -10 -10 -15
11 -35 26 -24 33 -44 15 -44 -5 0 -10 -9 -10 -21 0 -14 -5 -19 -14 -16 -10 4
-13 1 -10 -8 3 -8 11 -13 17 -12 8 1 12 -15 12 -46 1 -32 7 -52 19 -65 17 -15
18 -15 13 0 -3 9 1 22 9 28 12 10 14 8 14 -14 0 -14 5 -26 10 -26 6 0 10 -7
10 -15 0 -27 29 -29 50 -4 10 13 19 30 20 37 0 24 20 11 20 -14 0 -19 4 -25
14 -21 16 6 36 -39 36 -79 0 -28 15 -31 28 -8 11 20 32 10 33 -14 0 -12 3 -10
10 6 13 34 35 22 31 -17 -4 -38 23 -73 33 -42 9 31 34 34 41 6 7 -30 12 -31
30 -7 13 16 15 16 29 -2 11 -14 12 -24 3 -39 -8 -16 -8 -22 1 -25 14 -5 15
-38 1 -55 -5 -7 -20 -25 -32 -40 -18 -21 -38 -31 -88 -41 -36 -8 -69 -10 -75
-6 -5 4 -20 4 -32 -1 -34 -12 -18 -39 22 -39 29 0 34 -4 38 -27 4 -27 4 -27
12 -6 10 31 25 29 25 -2 0 -26 -30 -64 -52 -67 -52 -6 -75 -2 -90 17 l-18 20
3 -22 c2 -12 11 -31 20 -41 9 -10 17 -29 17 -42 0 -13 10 -34 22 -47 22 -23
58 -31 58 -13 0 6 10 10 22 10 41 0 -4 -31 -53 -36 -71 -8 -90 -14 -83 -25 4
-7 -4 -9 -22 -7 -38 4 -47 38 -10 38 14 0 28 5 31 10 3 6 2 10 -4 10 -6 0 -9
6 -7 13 3 6 8 26 12 42 l7 30 7 -25 8 -25 1 26 c1 16 -5 29 -15 33 -8 3 -13 2
-10 -3 6 -9 -41 -55 -67 -64 -26 -10 -83 17 -103 47 -9 15 -14 29 -12 32 3 2
13 -7 22 -21 20 -30 37 -32 54 -5 7 11 18 20 25 20 8 0 7 -4 -3 -10 -9 -6 -10
-10 -3 -10 6 0 14 4 17 9 3 5 15 7 26 4 22 -6 25 6 20 77 -2 19 -3 49 -3 65
-1 39 -18 55 -55 51 -25 -4 -29 -1 -25 15 3 10 12 19 19 19 14 0 19 27 15 88
-2 28 1 33 16 31 23 -4 81 22 88 38 5 15 -11 17 -20 3 -8 -13 -65 -13 -65 0 0
6 10 10 23 10 20 1 19 2 -8 17 -30 16 -30 16 -7 26 25 11 30 37 7 37 -8 0 -15
-5 -15 -11 0 -6 -9 -8 -20 -4 -15 5 -20 2 -20 -13 0 -11 -8 -30 -19 -43 -17
-21 -17 -25 -3 -47 22 -34 3 -49 -38 -28 -18 8 -36 13 -41 10 -12 -7 -11 9 1
41 8 20 14 24 33 20 18 -5 23 -2 24 14 2 25 -46 33 -64 11 -11 -13 -15 -13
-28 4 -13 17 -18 18 -40 6 -14 -7 -25 -17 -25 -22 0 -5 -5 -6 -11 -2 -8 4 -7
9 2 15 11 6 11 11 1 21 -8 8 -12 8 -12 1 0 -17 -34 -22 -48 -7 -15 16 -16 44
-2 44 6 0 10 10 10 23 0 13 6 29 13 36 10 11 8 12 -9 3 -12 -7 -26 -7 -35 -1
-23 15 -29 11 -29 -21 0 -16 -4 -30 -9 -30 -16 0 -62 62 -68 91 -5 28 -23 41
-23 17 0 -9 -3 -9 -11 -1 -16 16 -4 31 25 31 17 0 28 -10 40 -34 19 -41 33
-43 42 -8 4 16 12 23 20 20 17 -7 18 6 2 23 -10 11 -10 13 0 7 14 -8 17 10 2
19 -5 3 -9 28 -9 54 1 27 -2 54 -5 60 -12 19 -26 12 -26 -14 0 -31 -28 -45
-42 -22 -11 20 -37 22 -74 5 -19 -9 -28 -10 -31 -2 -2 6 -16 9 -31 8 -15 -2
-22 -2 -16 1 7 3 10 14 7 24 -2 9 3 23 11 30 9 8 16 28 17 45 0 23 2 27 8 13
7 -18 8 -18 21 -1 8 10 10 15 3 11 -6 -4 -13 -2 -15 3 -3 11 -68 -16 -68 -28
0 -4 -10 -19 -22 -32 -13 -14 -24 -32 -26 -40 -5 -21 -53 -90 -63 -90 -5 0 -6
18 -3 40 5 33 4 39 -8 35 -11 -5 -14 1 -11 27 3 23 2 29 -5 19 -6 -8 -27 -14
-52 -14 l-42 0 6 -36 c5 -36 5 -36 -31 -37 -24 0 -42 -8 -54 -22 -20 -25 -31
-29 -23 -7 4 10 0 15 -11 15 -11 0 -15 -5 -11 -15 4 -12 -22 -36 -44 -40 -26
-5 -50 -19 -50 -30 0 -24 12 -45 26 -45 20 0 17 17 -3 29 -10 5 -14 13 -10 17
5 5 12 3 16 -4 4 -8 17 -15 27 -16 11 -2 18 -10 16 -18 -2 -12 7 -15 40 -12
22 2 47 -1 55 -7 17 -15 28 11 19 45 -9 35 10 41 22 8 10 -26 10 -73 1 -80 -2
-2 -24 -1 -49 2 -115 16 -123 16 -110 1 9 -11 9 -23 1 -45 -7 -22 -7 -38 0
-54 8 -17 8 -29 1 -42 -10 -18 -11 -18 -18 1 -4 10 -19 29 -33 42 l-26 22 29
25 c16 14 32 23 36 21 5 -3 3 6 -3 20 -11 21 -17 24 -52 20 -28 -4 -35 -2 -25
5 8 5 15 22 16 37 1 15 4 35 7 43 3 8 9 29 13 45 5 21 8 25 11 13 6 -23 18
-23 42 1 22 22 18 31 -16 31 -20 0 -23 5 -23 35 0 35 0 35 -44 35 -28 0 -48
-6 -57 -16 -11 -13 -15 -13 -24 -2 -15 19 -35 21 -35 3 0 -8 -6 -15 -13 -15
-23 0 -38 -37 -27 -66 9 -24 9 -25 -5 -14 -12 10 -16 8 -26 -16 -6 -16 -16
-51 -22 -79 -10 -47 -21 -64 -39 -65 -5 0 -8 7 -8 16 0 8 -7 22 -15 30 -19 20
-20 41 -1 25 18 -15 30 1 21 30 -6 19 11 53 24 45 3 -2 6 32 6 75 0 43 -2 79
-6 79 -3 0 -11 -11 -17 -25 -10 -21 -17 -24 -45 -21 -52 7 -63 -5 -49 -52 16
-52 16 -70 0 -54 -14 14 -28 16 -28 3 0 -5 9 -13 20 -16 34 -11 25 -60 -15
-83 -19 -11 -19 -11 3 -13 12 -1 28 -2 35 -3 6 0 13 -15 15 -33 6 -62 -64 -78
-111 -26 -13 15 -15 28 -11 53 6 29 8 31 20 16 7 -10 15 -13 18 -7 3 5 -1 16
-9 24 -22 22 -19 58 5 64 24 6 24 7 3 54 -22 46 -33 49 -33 10 0 -24 -4 -29
-21 -28 -14 1 -22 10 -26 28 -3 18 -10 26 -19 22 -8 -3 -14 0 -14 6 0 8 -5 9
-19 2 -16 -9 -18 -8 -14 9 3 11 11 25 19 31 16 13 18 29 4 29 -5 0 -10 -7 -10
-16 0 -8 -5 -12 -11 -9 -5 4 -19 -1 -30 -11 -15 -14 -19 -14 -19 -3 0 8 6 21
13 28 10 12 9 13 -7 7 -15 -5 -17 -2 -13 13 6 23 -23 55 -30 34 -7 -19 -20
-16 -26 7 -4 14 2 23 21 33 15 7 28 22 30 35 2 12 8 22 13 22 6 0 9 10 8 23
-4 38 27 97 52 97 14 0 19 5 16 15 -4 8 -2 17 3 20 6 4 10 12 10 18 0 9 -3 8
-8 -1 -5 -7 -24 -14 -43 -15 -31 -3 -35 0 -37 22 -1 18 1 22 7 12 7 -10 13
-11 30 -2 25 14 29 36 4 26 -34 -13 -62 -15 -68 -5 -4 7 -14 6 -28 -2 -25 -13
-67 -19 -66 -10 3 22 -3 30 -21 25 -14 -4 -19 -11 -15 -23 4 -14 0 -17 -20
-15 -14 2 -27 -1 -31 -6 -3 -5 6 -9 20 -9 20 0 26 -5 26 -22 -1 -21 -2 -21
-11 -5 -12 21 -29 13 -29 -14 0 -10 -4 -19 -9 -19 -5 0 -8 11 -5 24 2 14 -3
31 -12 41 -9 9 -14 26 -12 39 4 21 2 23 -12 14 -10 -6 -29 -8 -46 -4 -16 4
-31 7 -33 6 -5 -2 -21 22 -21 33 0 4 7 7 15 7 8 0 15 5 15 10 0 6 9 10 20 10
23 0 26 -19 8 -39 -11 -11 -10 -13 5 -7 10 3 23 6 28 6 5 0 9 13 9 29 0 17 6
31 16 35 8 3 12 2 9 -4 -3 -6 -2 -10 3 -10 17 0 22 13 9 28 -9 12 -5 11 23 -2
l35 -18 -35 31 c-32 28 -33 31 -12 31 12 0 22 -6 22 -12 0 -7 5 -5 11 5 5 9 7
22 3 29 -4 6 -3 8 3 5 6 -4 14 1 18 10 3 10 1 19 -6 22 -8 2 -8 6 2 11 10 7
10 11 -1 24 -7 9 -10 19 -6 23 3 3 6 2 6 -4 0 -6 9 -13 20 -16 11 -3 18 -1 15
3 -3 5 1 12 9 17 8 4 17 30 20 58 3 28 3 42 0 33 -6 -19 -13 -21 -56 -18 -21
1 -27 -2 -22 -14 4 -11 0 -13 -16 -9 -12 3 -19 11 -16 18 8 23 -22 25 -37 2
-14 -21 -14 -21 -19 6 -3 14 -1 24 3 21 10 -6 12 20 2 29 -3 4 -12 2 -20 -4
-9 -8 -13 -8 -13 -1 0 6 -7 9 -15 6 -8 -4 -15 -1 -15 5 0 6 -6 11 -13 11 -8 0
-13 11 -13 28 1 26 -1 27 -55 30 l-56 3 -16 -52 c-20 -60 -23 -93 -7 -69 8 11
10 5 8 -25 -2 -32 -7 -39 -20 -37 -12 2 -18 -4 -18 -17 0 -14 -5 -18 -20 -14
-12 3 -22 -1 -26 -10 -3 -8 -13 -13 -22 -10 -10 2 -30 -1 -46 -7 -22 -8 -26
-13 -17 -24 7 -8 11 -18 10 -22 -5 -27 1 -36 16 -24 10 8 15 9 15 2 0 -6 -8
-16 -17 -21 -17 -10 -17 -10 -1 -11 9 0 21 -6 25 -13 4 -8 20 -22 36 -32 27
-17 35 -39 18 -49 -5 -4 -15 7 -23 24 -13 31 -35 36 -30 6 2 -9 -4 -16 -13
-16 -8 0 -14 -6 -12 -12 1 -8 -6 -12 -17 -10 -10 2 -15 -1 -12 -7 4 -5 2 -12
-4 -16 -18 -11 -11 -27 10 -20 14 4 20 2 20 -9 0 -10 -8 -15 -21 -13 -12 1
-24 -4 -26 -11 -3 -7 1 -10 11 -6 13 5 13 2 3 -19 -6 -14 -15 -23 -19 -21 -3
2 -9 0 -12 -5 -4 -5 -1 -13 5 -17 9 -5 7 -11 -6 -20 -10 -7 -15 -20 -12 -29 5
-10 0 -15 -13 -15 -11 0 -20 -5 -20 -11 0 -5 5 -7 11 -3 8 5 10 -1 7 -20 -3
-14 -1 -29 4 -32 14 -9 -12 -34 -36 -34 -11 1 -32 10 -45 21 -21 17 -23 22
-10 31 10 7 7 8 -13 4 -21 -5 -28 -3 -28 9 0 8 -8 15 -17 16 -52 2 -90 17 -65
26 6 3 12 11 12 19 0 22 -74 12 -78 -10 -3 -14 -45 -31 -69 -27 -5 0 -8 16 -9
33 -1 20 -6 32 -13 30 -6 -1 -16 9 -21 22 -5 13 -14 27 -20 31 -8 5 -5 11 7
20 10 7 14 17 10 21 -4 5 -12 2 -17 -6 -6 -9 -10 -10 -10 -3 0 6 -8 9 -19 6
-10 -3 -22 0 -25 6 -5 7 4 11 22 11 21 0 31 6 35 20 3 11 1 20 -4 20 -5 0 -9
-7 -9 -16 0 -8 -4 -13 -10 -9 -5 3 -7 12 -3 20 3 9 -1 15 -9 15 -28 0 -47 39
-51 100 -2 33 0 60 5 60 12 0 10 58 -2 62 -6 2 -13 21 -17 43 -3 22 -9 42 -13
45 -4 3 -2 11 6 18 12 11 14 7 14 -24 0 -40 7 -43 13 -5 3 21 53 56 61 43 7
-12 106 -1 106 11 -1 20 -27 49 -35 38 -12 -20 -33 -12 -28 9 3 11 12 20 19
20 8 0 14 5 14 10 0 13 -27 13 -32 0 -2 -7 -14 -7 -36 1 -29 10 -35 9 -47 -7
-13 -18 -14 -18 -15 -1 0 20 -28 23 -36 3 -3 -8 -16 -17 -30 -20 -15 -4 -24
-14 -24 -25 0 -18 -25 -31 -59 -31 -11 0 -9 4 5 15 16 12 16 14 3 15 -26 0
-44 -27 -30 -44 9 -11 9 -15 -1 -18 -8 -3 -1 -16 20 -36 36 -36 37 -40 15 -67
-15 -20 -15 -20 -10 2 3 13 1 26 -4 29 -10 6 -12 -3 -13 -56 -1 -26 -6 -35
-21 -38 -16 -2 -17 -1 -5 7 12 9 12 14 -2 45 -13 26 -14 34 -4 30 7 -3 16 2
20 11 3 9 2 13 -4 10 -6 -3 -10 3 -10 14 0 12 -7 21 -15 21 -8 0 -15 5 -15 10
0 6 -4 10 -9 10 -6 0 -3 -12 4 -27 13 -25 13 -29 -1 -33 -8 -3 -15 -10 -14
-14 1 -5 -4 -12 -11 -17 -10 -6 -10 -11 -1 -22 9 -11 7 -16 -13 -27 -13 -7
-22 -17 -19 -21 2 -4 -4 -22 -15 -40 -15 -24 -17 -38 -10 -56 5 -13 6 -36 3
-49 -6 -22 -3 -25 17 -22 13 2 30 7 37 11 15 10 32 0 32 -19 0 -8 7 -14 15
-14 9 0 15 -9 15 -22 0 -19 2 -20 11 -8 9 12 10 11 6 -7 -4 -16 0 -23 16 -25
11 -2 22 -9 25 -16 2 -7 -2 -10 -12 -6 -17 7 -23 -20 -7 -31 5 -3 9 -19 9 -35
-1 -22 -6 -30 -20 -30 -10 0 -18 -5 -18 -11 0 -6 7 -8 15 -5 11 4 20 -3 28
-22 6 -15 16 -30 22 -34 5 -4 -1 -11 -15 -17 -14 -5 -18 -10 -10 -10 28 -1 18
-101 -9 -101 -6 0 -8 7 -5 15 8 19 -5 19 -20 0 -14 -19 -56 -9 -56 14 0 9 -10
27 -23 41 -13 14 -32 38 -42 53 -10 16 -24 26 -31 23 -8 -3 -14 1 -14 9 0 8 6
15 13 15 8 0 8 3 -2 9 -11 7 -10 10 5 14 18 5 17 5 -3 12 -23 8 -28 45 -6 45
11 0 11 4 1 20 -11 17 -15 18 -24 6 -9 -12 -12 -12 -22 4 -10 16 -8 21 6 29
14 9 12 10 -14 11 -26 0 -35 6 -48 35 -10 19 -15 39 -11 44 3 5 -2 16 -11 25
-8 9 -12 20 -9 26 10 16 -12 12 -30 -6 -15 -15 -18 -15 -44 10 -15 14 -30 23
-34 19 -6 -6 -11 11 -8 30 0 4 -5 7 -12 7 -24 0 -67 25 -73 43 -3 9 -10 17
-15 17 -6 0 -7 6 -3 13 6 10 4 10 -7 0 -7 -7 -21 -13 -30 -13 -12 0 -19 -12
-23 -45 -7 -45 -26 -63 -26 -25 0 27 -26 77 -42 82 -10 4 -10 8 0 21 14 17 7
41 -9 32 -5 -4 -9 -1 -9 4 0 6 20 11 44 11 25 0 48 5 51 10 3 6 -2 10 -12 10
-11 0 -14 3 -7 8 10 6 27 44 29 67 2 17 -17 35 -36 35 -16 0 -18 -5 -13 -25 7
-28 2 -30 -27 -15 -17 10 -20 7 -25 -20 -4 -16 -12 -30 -19 -30 -7 0 -18 -7
-26 -16 -11 -14 -15 -9 -30 37 -9 28 -15 58 -12 65 2 6 0 15 -6 19 -11 6 -16
-13 -12 -54 2 -19 -1 -22 -15 -17 -10 4 -21 1 -26 -6 -11 -17 -28 7 -28 40 0
20 -4 22 -22 16 -32 -9 -33 -11 -33 -61 l0 -44 -13 30 c-14 36 -42 41 -43 9
-1 -18 -3 -16 -10 10 -9 29 -13 32 -49 32 -31 0 -40 4 -41 18 -1 16 -2 16 -6
0 -6 -22 -23 -24 -23 -3 0 9 -10 19 -22 24 -21 7 -20 8 10 22 18 8 32 17 32
21 0 5 7 8 15 8 20 0 19 19 0 26 -9 4 -13 14 -11 23 3 9 1 23 -4 30 -5 9 -5
23 2 35 9 19 8 18 -12 -2 -21 -22 -21 -24 -4 -43 17 -18 16 -19 -12 -19 -23 0
-26 2 -14 11 12 8 12 12 2 16 -10 4 -10 8 -2 19 15 17 4 34 -22 34 -16 0 -18
3 -9 13 14 17 4 27 -25 27 -13 0 -26 5 -29 10 -5 8 -11 7 -21 -1 -11 -9 -14
-7 -14 10 0 17 3 20 18 13 19 -10 42 -5 42 10 0 5 -9 7 -19 3 -11 -3 -23 -1
-26 6 -6 8 -10 7 -16 -2 -7 -11 -11 -12 -17 -1 -6 9 -15 5 -34 -18 -16 -20
-28 -27 -33 -20 -4 6 -15 8 -26 5 -18 -6 -28 9 -11 18 4 2 1 2 -7 0 -8 -2 -22
4 -32 13 -11 10 -19 12 -19 7 0 -6 -9 -13 -21 -16 -12 -3 -18 -3 -15 0 3 4 0
13 -6 21 -10 11 -9 17 5 27 14 10 15 14 3 18 -8 3 -24 3 -35 0 -15 -4 -21 -1
-21 11 0 10 -5 14 -10 11 -6 -3 -7 -17 -4 -29 4 -17 -1 -30 -16 -44 -19 -18
-20 -21 -5 -29 13 -7 14 -15 6 -36 -7 -19 -7 -27 2 -30 7 -2 5 -3 -4 -2 -9 1
-23 -2 -32 -6 -10 -6 -18 -5 -22 1 -3 5 3 10 15 10 18 0 19 3 10 21 -7 11 -9
32 -6 45 4 16 3 22 -6 19 -7 -3 -19 4 -26 15 -7 11 -8 20 -3 20 5 0 11 -6 14
-12 3 -10 7 -10 19 -1 8 7 19 10 24 6 5 -4 5 -3 -1 3 -14 15 -75 26 -75 14 0
-6 -13 -9 -28 -8 -15 1 -34 -2 -42 -6 -8 -4 -7 -1 3 7 23 19 22 31 -3 24 -11
-3 -20 -1 -20 4 0 17 -29 9 -40 -10 -7 -14 -7 -22 0 -26 8 -5 7 -11 -1 -21
-10 -12 -8 -16 9 -20 12 -4 19 -11 15 -20 -3 -8 0 -14 7 -14 7 0 9 -8 5 -21
-5 -15 -4 -19 4 -15 6 4 26 4 44 0 28 -6 30 -8 12 -15 l-20 -8 20 -1 c11 -2
23 -2 27 -1 4 0 5 -6 2 -14 -4 -10 5 -16 30 -20 19 -4 39 -4 45 -1 5 4 15 -2
21 -13 7 -14 7 -22 -1 -27 -9 -5 -7 -11 4 -19 11 -8 15 -22 12 -43 -4 -39 7
-40 85 -13 68 24 155 18 173 -10 7 -11 20 -19 30 -19 31 0 59 -20 53 -37 -4
-9 -1 -22 6 -30 13 -16 18 -64 6 -57 -4 3 -8 -2 -8 -11 0 -9 5 -13 10 -10 6 4
10 -7 10 -24 0 -18 5 -31 13 -32 10 0 10 -2 0 -6 -7 -2 -13 -12 -13 -21 1 -16
2 -16 13 0 13 17 13 47 1 102 -5 22 -4 28 7 24 9 -3 17 -29 22 -74 7 -61 5
-73 -15 -112 -26 -49 -91 -92 -142 -92 -58 0 -128 -55 -95 -76 5 -3 9 -14 9
-25 0 -11 -5 -17 -10 -14 -6 3 -13 -1 -16 -10 -6 -13 -8 -14 -15 -3 -6 9 -9 7
-9 -9 0 -13 -6 -23 -14 -23 -12 0 -14 18 -11 90 1 50 -1 90 -6 90 -4 0 -11 10
-15 23 -9 29 -42 60 -58 54 -7 -3 -22 -23 -33 -44 -31 -59 -86 -85 -181 -84
-99 1 -114 4 -146 24 -31 21 -77 114 -78 159 -2 55 20 182 31 186 6 2 11 11
11 21 0 9 8 27 17 41 13 19 14 22 2 18 -11 -4 -14 1 -13 20 0 14 6 28 12 30 7
2 12 23 12 47 0 25 5 46 13 49 10 5 10 7 0 12 -7 3 -13 18 -12 32 l1 27 7 -24
c8 -31 31 -40 31 -13 0 19 -21 35 -46 37 -6 0 -18 6 -27 13 -9 8 -18 9 -21 3
-4 -5 -2 -12 4 -16 15 -9 12 -25 -5 -25 -8 0 -15 7 -15 15 0 8 -6 12 -14 9 -8
-3 -19 3 -26 15 -6 12 -18 21 -28 20 -15 0 -15 -1 -1 -7 12 -5 14 -13 8 -27
-5 -13 -8 -15 -8 -5 -1 8 -11 21 -22 29 l-22 13 26 16 25 17 -20 25 c-19 24
-20 24 -34 5 -8 -10 -14 -27 -14 -36 0 -10 -5 -21 -11 -24 -5 -4 -14 -18 -19
-31 -11 -29 -40 -32 -47 -4 -6 23 -41 27 -49 5 -4 -8 -11 -12 -16 -9 -6 4 -5
10 3 15 10 6 8 9 -7 9 -13 0 -24 8 -27 20 -3 12 -14 20 -27 20 -18 0 -21 4
-18 25 6 27 -9 35 -17 10 -16 -51 -15 -49 -29 -30 -12 16 -13 16 -19 1 -7 -19
-47 -22 -48 -3 0 10 -2 10 -6 0 -8 -21 -23 -14 -23 10 0 22 -2 23 -52 17 -51
-7 -98 7 -82 23 4 4 -1 9 -10 13 -9 3 -16 14 -16 24 0 24 -20 36 -30 19 -7
-10 -11 -10 -24 0 -14 12 -16 10 -16 -8 0 -15 -4 -20 -12 -14 -24 15 -67 11
-71 -6 -3 -11 -5 -8 -6 7 -1 22 -12 26 -60 22 -14 -1 -21 2 -17 9 4 7 1 9 -8
5 -8 -3 -17 -12 -20 -20 -6 -17 -56 -19 -56 -3 0 8 -4 8 -15 -1 -8 -6 -23 -9
-35 -5 -23 7 -26 -4 -7 -24 10 -11 8 -11 -10 -2 -12 6 -25 15 -28 21 -3 5 -29
7 -58 4 -49 -5 -51 -4 -32 11 19 15 18 16 -14 9 -27 -5 -32 -3 -25 7 6 10 3
10 -11 -1 -16 -14 -17 -13 -11 8 6 17 4 21 -8 16 -10 -4 -13 0 -10 13 4 15 0
19 -23 18 -31 0 -45 -31 -21 -46 11 -7 11 -9 0 -9 -8 0 -16 9 -19 20 -3 11
-12 20 -20 20 -10 0 -12 6 -8 20 6 18 3 20 -19 14 -22 -5 -27 -2 -36 22 -8 20
-8 30 -1 32 15 5 3 22 -16 22 -9 0 -13 -6 -9 -15 6 -18 -7 -19 -36 -4 -17 9
-20 9 -15 -2 19 -49 20 -52 10 -46 -6 4 -18 0 -27 -8 -9 -9 -17 -11 -21 -5
-10 16 -22 12 -28 -10 -6 -23 -37 -27 -37 -5 0 8 -8 15 -18 15 -21 0 -52 34
-52 58 -1 14 -3 14 -19 -5 -19 -23 -32 -30 -30 -15 3 19 -2 26 -10 13 -11 -17
-31 -6 -31 19 0 10 -6 21 -12 24 -9 3 -7 9 6 20 19 15 19 16 -7 16 -15 0 -27
5 -27 10 0 6 9 10 21 10 12 0 17 4 14 11 -4 6 -14 8 -22 5 -8 -3 -11 -1 -8 5
12 19 -3 41 -21 31 -12 -7 -23 -4 -35 7 -26 21 -24 31 5 31 23 0 30 19 13 36
-12 13 -7 24 8 18 8 -4 15 -12 15 -19 0 -8 8 -11 20 -8 11 3 20 0 20 -6 0 -6
3 -11 8 -11 12 0 5 89 -8 105 -9 11 -9 15 -1 15 6 0 11 -4 11 -9 0 -5 6 -11
14 -14 9 -4 12 0 9 12 -3 13 2 20 17 24 12 3 19 10 16 15 -3 6 2 8 14 5 24 -6
27 15 4 32 -15 10 -15 13 2 30 10 10 19 29 20 43 1 28 28 52 56 52 11 0 18 7
17 18 0 10 -3 12 -6 5 -11 -28 -32 -13 -31 22 1 30 5 35 27 36 21 0 23 2 8 8
-17 6 -17 8 -4 20 9 7 14 18 11 26 -3 7 0 16 5 20 6 3 9 11 5 16 -3 5 8 14 25
20 17 6 31 16 31 22 0 7 7 3 15 -7 14 -19 15 -19 15 -1 0 18 0 18 14 0 8 -11
12 -23 10 -27 -3 -5 0 -8 6 -8 6 0 9 -3 6 -8 -2 -4 6 -12 20 -19 22 -10 23 -9
22 13 -2 17 -8 24 -22 24 -14 0 -17 3 -10 10 14 14 47 1 40 -16 -3 -7 0 -14 7
-17 15 -5 47 35 48 60 0 10 3 13 6 6 2 -7 12 -13 20 -13 11 0 8 7 -12 26 -36
33 -27 40 18 14 25 -15 34 -26 30 -37 -4 -11 -2 -14 5 -9 7 4 12 15 12 25 0
10 11 23 24 29 20 9 24 20 30 81 6 57 11 71 24 72 11 0 12 3 5 6 -7 2 -13 9
-13 14 0 15 39 49 45 39 4 -6 1 -10 -4 -10 -6 0 -11 -4 -11 -10 0 -5 9 -10 20
-10 16 0 19 5 16 26 -4 19 0 27 17 33 15 6 24 4 30 -5 4 -8 13 -14 18 -14 6 0
7 5 3 12 -11 18 -22 88 -14 88 4 0 6 18 4 40 l-3 41 42 -4 c31 -3 43 -9 46
-23 3 -15 6 -13 17 11 l13 30 -5 -27 c-4 -17 -2 -28 4 -28 6 0 13 -17 15 -37
2 -21 4 -2 5 43 1 44 5 84 9 87 9 9 32 -24 33 -46z m2624 -65 c10 -2 22 2 27
9 10 17 16 11 24 -26 6 -28 7 -38 4 -67 -1 -7 2 -38 6 -68 7 -50 7 -54 -8 -42
-13 11 -19 10 -37 -8 -12 -12 -24 -19 -27 -16 -3 3 -9 45 -14 93 -5 48 -11
100 -13 115 -3 15 -2 36 1 45 6 15 8 14 13 -7 3 -14 14 -26 24 -28z m955 -299
c10 -17 12 -17 26 1 11 15 18 17 26 9 17 -17 24 -100 9 -118 -10 -12 -10 -15
1 -15 9 0 15 -15 17 -45 2 -26 -2 -45 -8 -45 -5 0 -10 5 -10 10 0 19 -38 10
-43 -11 -10 -36 -25 -12 -31 48 -17 166 -17 183 -7 183 5 0 15 -8 20 -17z
m-4679 -761 c0 -4 -5 -13 -12 -20 -8 -8 -9 -12 -1 -12 26 0 41 -30 36 -72 -2
-24 -7 -50 -10 -58 -4 -8 -5 -21 -4 -28 2 -9 -4 -12 -18 -7 -15 5 -18 2 -14
-13 2 -10 -2 -24 -10 -30 -12 -10 -15 -2 -21 49 -3 34 -6 88 -6 119 0 49 3 58
23 68 27 13 37 14 37 4z m640 -719 c0 -8 -5 -11 -12 -7 -10 5 -10 4 -1 -6 10
-11 15 -11 28 0 19 15 20 14 28 -27 4 -22 2 -33 -8 -37 -7 -2 -15 0 -18 7 -2
6 -6 2 -9 -9 -3 -11 2 -26 10 -34 14 -13 15 -12 9 2 -4 12 -2 15 9 11 7 -3 14
-11 14 -19 0 -8 5 -14 10 -14 6 0 10 -7 10 -15 0 -16 -26 -21 -32 -6 -1 4 -13
12 -25 15 -17 5 -23 3 -23 -8 0 -8 13 -17 30 -21 17 -4 28 -11 24 -16 -3 -5
-10 -6 -16 -3 -7 5 -9 0 -6 -14 4 -15 2 -22 -8 -22 -10 0 -13 7 -8 25 3 14 2
25 -4 25 -14 0 -22 -53 -10 -67 7 -9 7 -13 0 -13 -5 0 -8 -8 -5 -19 5 -21 -25
-38 -32 -18 -2 6 -8 74 -12 151 -8 129 -7 139 11 151 21 16 46 9 46 -12z
m-394 -303 c15 -6 24 -13 21 -17 -13 -12 15 -45 34 -40 21 6 35 -8 19 -18 -6
-4 -8 -11 -4 -16 3 -6 -2 -19 -12 -30 -15 -17 -16 -23 -6 -40 11 -17 9 -23
-14 -44 -14 -13 -23 -29 -19 -35 4 -6 -1 -17 -10 -24 -17 -12 -17 -14 -1 -38
12 -19 23 -24 42 -20 17 3 30 -2 39 -14 8 -11 15 -15 15 -10 0 11 29 -25 30
-36 0 -5 -9 -8 -20 -8 -20 0 -27 -14 -12 -24 13 -8 14 -126 1 -126 -6 0 -13 9
-16 20 -3 11 -9 20 -13 20 -5 0 -6 -10 -2 -22 5 -20 3 -21 -10 -10 -19 15 -24
34 -37 127 -6 38 -16 72 -23 76 -9 6 -13 33 -13 86 0 68 -3 78 -18 77 -16 -2
-22 8 -18 29 1 5 -3 6 -8 3 -5 -4 -16 3 -24 14 -11 16 -12 26 -4 44 6 13 17
21 24 19 9 -4 11 0 7 12 -5 11 -1 21 11 27 14 8 15 12 4 19 -20 12 3 11 37 -1z
m4523 -123 c-5 -19 -5 -33 1 -37 5 -3 5 -11 0 -20 -16 -25 -11 -35 6 -14 8 10
13 13 9 6 -3 -6 1 -15 9 -18 19 -7 11 -52 -13 -72 -13 -10 -9 -11 27 -7 34 5
42 3 42 -10 0 -8 7 -15 15 -15 8 0 15 -7 15 -15 0 -8 8 -15 18 -15 10 0 23 -5
30 -12 9 -9 12 -9 12 0 0 7 4 12 10 12 5 0 7 -7 4 -15 -4 -8 -1 -15 5 -15 14
0 15 -27 1 -32 -6 -2 -12 -19 -13 -38 -3 -44 -13 -60 -38 -60 -17 0 -20 6 -17
33 3 29 0 32 -26 35 -16 2 -40 -2 -53 -9 -12 -7 -25 -10 -28 -7 -9 9 28 88 42
88 9 0 7 6 -7 20 -27 27 -60 26 -60 -1 0 -12 4 -17 11 -13 7 4 7 -1 -1 -16 -7
-14 -15 -18 -19 -12 -4 7 -12 8 -21 2 -22 -14 -30 -12 -30 6 0 8 -4 12 -10 9
-6 -4 -10 12 -10 42 0 35 -3 44 -10 33 -13 -20 -14 5 -1 29 8 13 5 17 -12 18
-31 3 -76 -27 -69 -46 5 -15 4 -15 -14 0 -10 9 -28 19 -39 23 -19 7 -18 9 13
37 27 24 31 33 22 44 -6 8 -10 24 -7 37 l4 23 8 -22 c5 -14 12 -20 23 -16 13
4 12 2 -2 -9 -19 -15 -19 -16 3 -23 28 -8 35 -2 36 32 0 14 5 28 12 30 13 5
28 -51 17 -68 -5 -8 -3 -9 5 -4 7 4 11 18 8 30 -3 17 2 26 20 34 25 12 30 26
11 37 -8 5 -2 12 17 20 41 17 56 3 44 -39z m4555 7 c18 -7 22 -30 6 -36 -7 -2
-3 -18 8 -41 10 -21 20 -35 23 -32 3 3 6 -18 7 -45 0 -28 -3 -50 -9 -50 -5 0
-9 6 -9 13 0 7 -11 21 -25 31 -14 11 -24 25 -21 33 7 17 -12 17 -30 -1 -20
-21 -58 0 -79 43 -18 39 -17 42 13 34 13 -3 21 -12 20 -22 -2 -10 5 -17 19
-19 21 -3 22 0 16 28 -5 27 -3 31 13 28 11 -2 19 3 20 12 2 33 3 34 28 24z
m-5681 -90 c4 -7 14 -20 22 -28 26 -26 19 -84 -14 -117 -33 -32 -56 -36 -105
-15 -71 30 -88 105 -36 157 27 28 33 30 77 23 27 -4 51 -13 56 -20z m-233 -40
c0 -51 -7 -101 -14 -112 -5 -8 -15 -8 -32 -2 -32 13 -43 12 -24 0 17 -11 5
-13 -39 -4 -26 6 -31 11 -31 35 0 27 -11 35 -42 30 -15 -2 -8 26 11 47 19 23
41 29 41 12 0 -5 7 -10 15 -10 8 0 15 5 15 11 0 5 8 9 18 7 9 -1 28 5 42 15
29 20 41 11 40 -29z m-2857 0 c-6 -35 -5 -36 23 -32 22 2 29 -1 29 -14 0 -9 4
-20 8 -24 12 -12 8 -24 -8 -24 -8 0 -15 -8 -15 -17 0 -15 2 -16 10 -3 8 13 10
13 10 -1 0 -23 -36 -54 -43 -37 -4 10 -8 10 -16 -2 -9 -13 -12 -12 -25 5 -39
52 -44 136 -10 170 28 27 43 19 37 -21z m8275 20 c27 -18 28 -41 5 -67 -14
-15 -15 -21 -5 -24 31 -11 44 -37 39 -75 -3 -21 -1 -38 4 -38 5 0 9 -21 9 -46
0 -41 2 -46 20 -41 13 3 20 0 20 -9 0 -10 6 -11 25 -4 19 7 25 6 25 -4 0 -7 7
-19 15 -26 21 -17 19 -30 -4 -30 -10 0 -21 -7 -25 -15 -3 -8 -1 -15 4 -15 6 0
10 -7 10 -16 0 -13 -3 -14 -13 -5 -10 8 -19 7 -33 -4 -10 -8 -28 -15 -38 -15
-20 0 -20 0 -1 -14 15 -11 24 -12 40 -3 11 6 25 12 32 13 6 1 22 12 35 24 13
13 17 20 11 16 -9 -5 -11 -2 -7 8 7 19 20 21 30 5 3 -6 15 -8 26 -6 31 8 0
-23 -39 -39 -22 -10 -33 -22 -38 -44 -8 -35 -9 -36 -58 -45 -30 -6 -37 -4 -37
9 0 9 -6 16 -12 17 -10 0 -10 2 0 6 6 2 12 12 12 20 0 13 -3 13 -15 3 -8 -7
-24 -10 -35 -7 -11 3 -23 1 -26 -4 -6 -11 -37 17 -31 28 3 5 1 17 -4 28 -7 18
-8 17 -8 -6 -1 -15 -8 -40 -16 -55 -8 -16 -15 -37 -15 -46 0 -10 -4 -18 -9
-18 -6 0 -6 12 0 32 11 40 11 38 -2 38 -6 0 -27 -18 -46 -40 -35 -40 -53 -50
-53 -30 0 6 11 15 24 19 13 5 26 17 29 25 8 20 -7 21 -23 1 -16 -19 -26 -19
-33 0 -7 17 17 68 26 58 6 -6 11 21 8 40 -1 5 8 20 19 34 11 14 20 22 20 18 0
-18 30 20 31 39 1 18 3 17 12 -6 6 -16 14 -28 19 -28 4 0 8 -7 8 -16 0 -33 25
-5 40 44 9 28 27 63 40 78 20 22 21 26 7 21 -10 -4 -25 -7 -33 -7 -9 0 -11 -6
-7 -17 6 -15 4 -16 -9 -5 -12 9 -18 10 -23 2 -4 -6 -14 -9 -22 -6 -9 4 -22 1
-30 -6 -8 -7 -24 -17 -36 -23 -11 -5 -26 -26 -33 -45 -15 -41 -14 -43 -21 40
-5 66 8 234 15 193 4 -26 24 -30 46 -8 8 8 18 15 23 15 12 0 42 37 36 44 -11
11 19 35 35 29 15 -6 15 -5 3 10 -11 14 -11 17 1 17 7 0 24 -7 36 -16z m-6302
-35 c4 -21 11 -37 16 -36 6 1 12 -6 13 -15 3 -18 -40 -53 -65 -53 -10 0 -16
-13 -18 -42 -3 -34 -8 -43 -32 -53 -18 -7 -27 -17 -23 -26 3 -8 1 -14 -5 -14
-5 0 -12 22 -16 50 -4 27 -11 52 -16 55 -18 11 -7 88 17 111 12 12 24 19 27
16 3 -3 6 0 6 7 0 7 4 10 9 6 5 -3 13 0 16 6 4 5 13 8 21 5 8 -3 14 0 14 8 0
7 7 13 15 13 10 0 17 -14 21 -38z m400 32 c-8 -12 60 -54 77 -48 7 3 4 6 -6 6
-10 1 -16 5 -12 10 8 13 65 10 65 -3 0 -6 -5 -29 -11 -51 -7 -22 -12 -51 -13
-64 0 -13 -7 -26 -15 -29 -10 -3 -12 0 -8 12 4 9 1 16 -5 16 -6 0 -17 8 -24
18 -19 26 -38 1 -39 -53 0 -49 -2 -51 -26 -32 -16 12 -24 97 -9 97 4 0 10 10
13 21 5 20 4 20 -22 -5 -33 -32 -41 -33 -37 -3 5 40 45 117 61 117 9 0 14 -4
11 -9z m-849 -33 c36 -16 63 -46 63 -70 0 -10 5 -18 10 -18 6 0 10 -13 10 -28
0 -34 23 -71 34 -54 4 7 14 12 22 12 8 0 12 -4 9 -10 -3 -5 -1 -10 4 -10 6 0
10 -3 9 -7 -5 -18 13 -93 22 -93 6 0 10 -8 10 -17 0 -15 -2 -16 -10 -3 -5 8
-12 11 -15 8 -4 -4 -3 -13 1 -20 5 -7 9 -19 11 -27 1 -7 7 -19 14 -25 9 -8 11
-7 6 6 -3 10 -2 20 3 23 13 8 23 -33 14 -63 -4 -15 -7 -30 -6 -34 1 -3 -6 -9
-15 -12 -12 -5 -14 -2 -10 13 3 12 -1 22 -10 25 -9 4 -13 13 -9 21 4 12 -1 15
-22 13 -22 -2 -28 2 -30 20 -2 14 1 22 10 20 8 -2 12 5 10 17 -1 11 3 37 9 57
7 20 9 44 5 53 -11 31 -33 -2 -41 -60 -6 -53 -18 -69 -28 -42 -8 17 -27 -11
-27 -40 0 -24 -14 -31 -26 -12 -3 6 -2 14 4 18 5 3 11 15 14 26 2 13 11 20 26
19 19 0 22 5 22 38 0 21 -4 38 -9 38 -5 0 -11 8 -14 18 -3 14 -6 13 -14 -7 -8
-21 -10 -22 -16 -7 -5 14 -14 16 -33 12 -20 -5 -27 -3 -31 14 -3 11 -11 20
-18 20 -8 0 -11 -8 -8 -19 4 -16 1 -19 -19 -14 -12 3 -27 9 -33 13 -14 10 -58
-7 -50 -20 7 -11 -6 -13 -29 -4 -9 3 -16 15 -16 25 0 24 -9 24 -39 -1 -19 -17
-22 -26 -17 -54 6 -33 -7 -59 -17 -34 -3 7 -6 -4 -6 -26 -1 -33 -4 -38 -21
-33 -11 3 -18 1 -14 -4 3 -5 0 -9 -5 -9 -6 0 -11 9 -11 20 0 11 3 20 8 20 8 0
38 61 34 73 -1 4 3 7 8 7 6 0 9 3 8 8 0 4 2 15 7 25 4 9 5 27 2 38 -3 12 -2
29 3 38 5 9 11 28 15 44 4 18 12 27 25 27 11 0 20 6 21 13 0 9 2 9 6 -1 3 -7
-3 -20 -13 -27 -18 -14 -18 -14 -1 -15 10 0 20 8 24 18 10 29 34 51 49 45 8
-3 14 0 14 5 0 6 14 10 30 10 17 -1 33 2 37 5 9 10 18 9 50 -5z m-602 -50 c7
-21 10 -38 7 -38 -3 0 2 -8 12 -19 25 -27 26 -169 1 -194 -8 -8 -12 -17 -10
-19 3 -3 -2 -5 -11 -5 -13 0 -15 8 -10 35 5 34 5 35 -10 13 -9 -12 -13 -28
-10 -36 2 -7 -2 -19 -11 -27 -15 -12 -16 -9 -11 27 4 27 1 44 -8 53 -9 8 -11
23 -7 42 3 18 0 36 -7 45 -11 13 -10 14 2 10 14 -6 14 0 2 52 -17 70 -17 73
-4 73 6 0 10 -6 10 -12 1 -21 28 -51 39 -43 8 4 6 15 -4 35 -19 37 -19 52 1
48 9 -2 22 -20 29 -40z m1137 30 c-16 -16 -15 -28 2 -28 7 0 16 8 19 19 3 12
13 19 31 19 14 0 27 -3 27 -7 1 -3 3 -15 6 -26 2 -11 5 -36 6 -55 2 -31 -1
-35 -26 -40 -27 -5 -27 -5 -7 -18 17 -10 21 -10 26 2 6 15 34 11 34 -6 0 -5
-4 -7 -9 -4 -5 3 -12 -10 -15 -29 -5 -27 -12 -35 -29 -35 -12 0 -36 -9 -54
-20 l-32 -19 9 24 c8 21 7 25 -10 25 -11 0 -20 -4 -20 -10 0 -5 -6 -10 -14
-10 -16 0 -26 30 -26 78 0 26 4 32 23 32 22 1 22 1 -3 15 l-25 14 25 1 c21 0
25 5 26 29 1 29 21 60 39 61 5 0 4 -5 -3 -12z m-2854 -35 c2 -11 14 -26 28
-33 16 -9 24 -22 24 -41 0 -34 -13 -43 -65 -47 -90 -7 -115 -7 -114 3 0 6 9 9
21 7 13 -3 18 0 13 8 -4 7 -2 16 5 20 8 5 7 9 -4 13 -9 4 -16 2 -16 -3 0 -6
-4 -10 -10 -10 -21 0 -8 31 26 62 56 52 86 58 92 21z m4780 -13 c9 -17 23 -28
30 -25 7 3 12 -5 12 -20 0 -13 5 -27 10 -30 6 -3 10 -1 10 6 0 7 8 5 21 -7 20
-18 20 -19 1 -27 -13 -6 -21 -21 -24 -42 -4 -32 8 -42 24 -20 4 6 8 2 8 -7 0
-10 5 -18 10 -18 6 0 10 -6 10 -14 0 -23 23 -25 48 -3 26 24 31 4 5 -25 -20
-22 -53 -24 -53 -3 0 23 -28 18 -41 -7 -11 -21 -11 -22 5 -9 14 12 16 12 9 -4
-5 -14 -3 -17 10 -12 8 3 17 1 19 -5 2 -6 19 -2 41 11 45 25 51 26 43 5 -3 -8
1 -31 9 -50 14 -35 29 -47 19 -16 -5 14 -4 14 7 -2 9 -15 9 -30 -1 -73 -9 -37
-10 -57 -3 -64 12 -12 6 -49 -8 -49 -5 0 -9 -4 -9 -9 0 -5 9 -7 20 -4 16 4 19
2 14 -11 -4 -9 0 -18 9 -21 11 -5 14 -23 13 -76 0 -38 -5 -69 -11 -69 -5 0
-21 -3 -35 -6 -21 -6 -23 -4 -12 7 14 16 16 55 2 64 -14 9 -12 45 3 46 9 0 9
2 -1 6 -10 4 -9 10 5 25 18 20 18 20 -15 13 -31 -6 -32 -6 -22 19 7 20 6 28
-8 36 -16 11 -16 11 0 6 10 -3 20 0 24 6 4 7 3 8 -4 4 -8 -5 -12 1 -12 15 0
21 -1 21 -18 6 -22 -20 -43 -22 -60 -5 -19 19 -14 44 12 58 27 14 56 8 56 -12
0 -7 8 -18 18 -24 15 -9 17 -7 18 18 1 20 -4 28 -16 28 -9 0 -25 7 -36 16 -18
15 -18 15 5 8 16 -4 21 -3 17 5 -4 6 0 11 8 11 9 0 16 4 16 10 0 9 -33 7 -81
-5 -18 -4 -31 -1 -43 10 -23 24 -31 12 -12 -18 15 -22 15 -25 -4 -42 -11 -10
-21 -32 -21 -49 l-1 -31 -7 27 c-3 15 -20 38 -38 51 -20 14 -29 27 -23 33 5 5
-8 10 -33 12 -37 2 -43 -1 -54 -25 -16 -33 -16 -56 -2 -70 14 -14 49 -5 49 13
0 8 7 14 15 14 8 0 15 7 15 16 0 14 3 14 15 4 8 -7 15 -16 15 -21 0 -5 -7 -9
-15 -9 -9 0 -15 -10 -16 -22 0 -13 -2 -31 -4 -40 -2 -10 0 -18 4 -18 10 0 8
-31 -3 -49 -6 -10 0 -12 28 -10 19 2 36 1 36 -1 3 -15 -28 -71 -34 -62 -4 8
-15 8 -31 2 -20 -8 -27 -6 -35 9 -6 13 -19 18 -35 17 -14 -2 -30 3 -36 10 -8
10 -16 11 -30 3 -13 -6 -19 -6 -19 1 0 5 7 10 15 10 9 0 15 10 16 28 1 30 8
99 12 123 1 9 10 28 20 42 9 15 17 35 17 46 0 10 7 21 15 25 9 3 12 12 8 21
-4 11 -1 16 8 15 30 -5 40 1 56 35 19 41 32 46 25 10 -5 -27 6 -32 27 -12 8 6
6 -1 -4 -16 -10 -16 -24 -26 -31 -23 -20 8 -17 -7 6 -32 21 -22 36 -30 25 -13
-3 5 0 13 6 16 5 4 8 13 5 21 -3 8 1 17 8 20 11 4 13 19 9 57 -2 29 -4 64 -4
78 1 15 -6 39 -14 55 -15 28 -15 27 -10 -38 4 -44 2 -68 -5 -68 -5 0 -10 13
-10 30 0 28 -2 29 -32 23 -22 -4 -29 -3 -24 5 4 7 5 12 2 12 -3 0 -10 -10 -17
-21 -6 -12 -7 -19 -1 -15 5 3 12 -1 16 -9 3 -8 2 -15 -2 -15 -4 0 -8 -12 -9
-27 -1 -19 1 -22 8 -12 7 10 9 8 7 -10 -2 -16 -10 -25 -25 -27 -28 -5 -36 9
-40 71 -2 27 -6 57 -9 65 -13 31 -8 75 10 78 14 3 16 -2 11 -25 -5 -27 -5 -27
5 -4 7 17 7 28 -1 38 -20 24 6 58 47 61 30 2 37 -2 52 -28z m599 -12 c17 -13
-3 -53 -33 -66 -12 -6 -30 -23 -40 -37 -19 -29 -66 -34 -91 -9 -14 13 -14 19
-2 41 7 14 23 29 35 33 12 5 24 16 27 24 13 33 71 40 104 14z m-4440 -48 c-3
-11 -1 -20 4 -20 5 0 9 5 9 11 0 8 4 8 14 0 8 -6 18 -11 22 -10 28 5 42 -5 61
-43 23 -46 39 -148 23 -148 -6 0 -10 8 -10 18 0 21 -57 56 -64 39 -3 -8 -8 -7
-15 3 -6 8 -11 11 -11 5 0 -5 -5 -2 -11 9 -9 14 -13 16 -20 5 -6 -10 -10 -6
-18 13 -5 14 -19 29 -31 33 -11 3 -18 10 -15 15 3 5 -2 13 -11 18 -15 8 -13
13 11 41 33 36 70 43 62 11z m2937 -5 c-4 -9 -1 -15 7 -15 7 0 5 -6 -7 -14
-18 -14 -18 -15 -1 -21 20 -8 23 -31 5 -38 -8 -2 -9 -8 -4 -13 5 -5 11 -4 13
4 3 6 17 12 33 12 16 0 30 5 32 12 7 19 26 0 33 -33 5 -20 3 -35 -5 -42 -10
-10 -11 -5 -6 18 4 17 3 25 -1 20 -4 -6 -20 -10 -34 -10 -14 1 -26 -5 -26 -12
0 -6 4 -10 9 -7 4 3 8 1 8 -5 0 -5 3 -16 6 -24 3 -10 -3 -17 -20 -21 -24 -6
-31 -15 -23 -32 2 -6 -42 -33 -55 -34 -19 -1 -6 21 18 30 15 6 22 14 18 21 -4
7 1 18 12 26 17 12 17 14 1 30 -16 16 -17 16 -17 0 0 -17 -15 -22 -54 -19 -12
2 -16 -3 -12 -13 3 -8 2 -15 -3 -15 -5 0 -9 -18 -9 -41 -1 -49 -2 -50 -30 -42
-24 6 -31 33 -8 33 18 0 35 122 17 128 -27 9 13 72 46 72 15 0 16 2 3 10 -13
8 -12 10 2 10 10 0 23 9 30 20 15 23 30 27 22 5z m-4912 -62 l3 -48 31 33 c20
21 34 30 38 23 4 -6 5 -15 2 -20 -3 -4 5 -13 18 -19 31 -14 46 -71 22 -84 -9
-5 -15 -19 -14 -31 3 -37 -25 -127 -39 -127 -7 0 -13 8 -13 18 0 11 -9 29 -20
42 -11 13 -20 27 -20 32 0 5 -4 7 -9 4 -14 -9 -21 32 -21 132 0 95 17 129 22
45z m5399 15 c4 -71 9 -91 28 -109 12 -11 26 -17 33 -13 8 5 9 -1 4 -21 -6
-25 -5 -27 9 -15 11 9 14 22 10 41 -7 32 7 45 25 24 10 -12 10 -22 3 -38 -6
-13 -9 -35 -6 -50 3 -17 1 -27 -6 -27 -7 0 -30 -14 -51 -31 -45 -37 -76 -34
-66 5 7 29 -7 75 -18 58 -4 -6 -8 -26 -10 -44 -7 -65 -54 -128 -57 -75 -1 12
-1 25 0 30 2 11 -14 8 -27 -5 -19 -19 -14 -1 12 52 22 44 23 49 8 56 -9 4 -25
6 -34 5 -11 -1 -18 4 -18 14 0 9 4 14 9 11 13 -8 42 4 36 14 -3 5 -1 11 4 14
15 9 25 -14 12 -27 -16 -16 -14 -27 3 -21 8 3 17 13 20 22 2 10 2 -12 0 -48
-5 -60 -4 -64 10 -46 9 11 16 32 16 47 0 15 5 29 12 31 8 3 4 13 -10 29 -16
17 -19 25 -10 28 21 7 28 23 28 69 0 31 4 42 15 42 9 0 15 -10 16 -22z m993
-14 c3 -8 2 -12 -4 -9 -6 3 -10 -3 -10 -13 0 -11 -3 -35 -6 -53 -4 -20 -3 -31
2 -26 5 5 9 12 9 15 1 16 31 52 42 52 7 0 13 5 13 11 0 5 -4 8 -9 4 -13 -7
-24 12 -15 27 11 18 34 -21 34 -60 0 -18 5 -42 10 -53 10 -18 12 -17 39 14 17
18 33 28 38 23 4 -5 2 -11 -4 -13 -7 -3 -13 -11 -13 -19 0 -8 -4 -14 -9 -14
-5 0 -11 -9 -14 -20 -3 -13 -11 -18 -20 -14 -11 4 -16 -4 -19 -35 -2 -21 1
-37 6 -34 5 3 7 0 5 -6 -3 -7 -22 -22 -44 -34 -22 -12 -43 -26 -46 -30 -12
-17 -31 23 -24 53 5 23 3 30 -9 30 -20 0 -21 26 -1 34 8 3 15 0 15 -7 0 -8 4
-7 10 3 19 31 -31 54 -59 28 -11 -10 -13 -10 -7 0 4 6 2 12 -3 12 -6 0 -11 5
-11 10 0 6 7 10 15 10 8 0 15 7 15 15 0 8 6 15 14 15 16 0 29 27 20 41 -3 5
-10 7 -15 3 -5 -3 -7 -9 -5 -13 3 -4 -2 -8 -10 -8 -21 0 -12 20 17 34 13 7 20
13 14 13 -5 0 -1 7 9 15 24 18 23 18 30 -1z m1044 0 c10 -19 3 -76 -9 -68 -5
3 -9 -2 -9 -11 0 -10 6 -15 13 -12 9 3 12 -5 9 -29 -6 -47 4 -70 22 -55 11 10
18 4 32 -29 19 -43 36 -54 26 -17 l-5 22 24 -20 c13 -11 19 -13 12 -6 -9 10
-9 20 -2 33 7 13 7 23 0 31 -18 23 -32 67 -20 67 6 0 13 -9 16 -20 8 -30 20
-24 33 15 14 41 24 45 26 10 1 -14 -2 -25 -7 -25 -5 0 -9 -16 -9 -35 0 -29 5
-37 26 -45 14 -6 30 -8 35 -4 5 3 9 -9 9 -25 0 -29 -3 -31 -34 -31 -25 0 -35
-5 -39 -20 -4 -14 0 -20 11 -21 10 0 0 -8 -20 -17 -36 -16 -50 -32 -27 -32 5
0 7 -5 4 -10 -4 -6 -2 -16 3 -23 17 -21 24 -75 12 -97 -6 -12 -27 -28 -47 -36
-19 -8 -52 -33 -72 -55 -52 -54 -92 -55 -121 -1 -12 22 -19 28 -17 15 3 -15 1
-20 -8 -17 -7 3 -16 1 -20 -5 -12 -21 -25 -11 -19 14 5 21 3 24 -12 18 -12 -4
-15 -3 -10 5 4 7 2 12 -3 12 -6 0 -11 -4 -11 -10 0 -5 -7 -10 -15 -10 -17 0
-20 -25 -5 -35 6 -3 10 -1 10 4 0 22 18 10 22 -14 4 -19 1 -25 -13 -25 -11 0
-19 5 -19 10 0 6 -11 15 -25 20 -14 5 -25 17 -25 27 0 13 -6 11 -29 -11 -22
-21 -30 -24 -34 -13 -11 30 23 101 37 78 3 -5 22 -7 41 -4 29 4 35 1 35 -14 1
-17 1 -17 11 1 9 14 8 20 -2 27 -8 5 -9 9 -3 9 6 0 16 19 21 43 6 24 11 33 12
20 0 -13 6 -23 12 -23 6 0 9 7 5 15 -4 10 1 15 15 15 11 0 18 -4 15 -9 -4 -5
8 -7 26 -4 31 4 32 4 13 -10 -11 -9 -23 -13 -27 -11 -5 3 -8 1 -8 -5 0 -22 20
-19 42 6 13 16 33 33 44 39 24 14 28 95 4 102 -12 4 -13 2 -2 -9 17 -18 15
-64 -4 -80 -22 -18 -88 -17 -105 2 -8 8 -20 25 -28 38 -11 21 -11 25 3 33 9 5
16 19 16 31 0 13 3 17 8 11 4 -6 27 -14 52 -17 25 -3 40 -4 34 -1 -12 5 -6 64
7 64 5 0 9 -5 9 -12 0 -6 3 -8 7 -5 3 4 6 54 5 112 0 57 3 107 8 110 6 3 7 -1
4 -9 -3 -9 -2 -16 4 -16 15 0 20 22 11 48 -10 25 5 31 19 6z m-1770 -23 c2
-13 -1 -28 -7 -34 -14 -14 -14 -52 -1 -77 5 -10 7 -26 4 -35 -5 -13 -9 -13
-22 -3 -11 9 -13 9 -9 1 4 -6 2 -15 -4 -19 -8 -5 -8 -9 1 -14 15 -9 6 -26 -21
-41 -19 -10 -20 -8 -18 18 2 15 10 36 18 46 8 9 11 20 7 24 -4 5 -12 0 -17
-10 -6 -9 -16 -17 -24 -17 -7 0 -19 -13 -27 -30 -7 -16 -20 -30 -28 -31 -8 0
-25 -2 -37 -3 -20 -2 -20 -1 -6 21 11 17 21 21 39 17 20 -5 24 -2 24 17 0 31
14 52 36 55 23 4 34 24 27 51 -8 35 4 73 22 67 10 -4 15 0 15 11 0 25 24 12
28 -14z m-993 -47 c0 -38 -2 -43 -19 -38 -14 5 -18 3 -13 -10 3 -8 1 -18 -5
-22 -6 -4 -9 -3 -6 2 3 5 0 15 -8 22 -12 11 -14 5 -14 -38 0 -54 16 -67 42
-32 17 22 58 45 58 32 0 -5 -19 -23 -42 -40 -24 -18 -34 -30 -25 -30 18 0 23
-15 7 -25 -5 -3 -7 -12 -4 -19 3 -7 -2 -16 -11 -20 -9 -3 -13 -2 -10 4 3 6 1
10 -5 10 -17 0 -24 -29 -12 -55 16 -35 4 -93 -22 -102 -11 -4 -26 -8 -31 -8
-6 0 -23 -10 -38 -22 -22 -17 -27 -29 -25 -57 2 -34 18 -53 18 -22 0 9 9 14
20 13 11 -1 20 -5 20 -9 0 -5 13 -16 30 -27 16 -10 27 -20 24 -23 -3 -4 -7
-19 -10 -35 -4 -24 0 -31 23 -41 16 -7 48 -24 73 -38 25 -14 39 -20 33 -13 -7
7 -13 21 -13 30 0 21 49 109 61 109 14 0 11 -27 -3 -34 -7 -3 -3 -3 10 0 17 4
24 0 31 -18 6 -13 10 -18 11 -13 0 6 5 3 10 -5 13 -20 13 -33 0 -25 -5 3 -10
-1 -10 -11 0 -11 6 -15 20 -11 22 6 23 5 14 -17 -3 -9 -17 -16 -30 -16 -13 0
-47 -9 -76 -21 -44 -17 -56 -18 -76 -8 -16 9 -26 10 -30 3 -4 -6 -17 -13 -29
-16 -18 -5 -22 -2 -20 16 2 17 -3 21 -27 21 -20 1 -32 8 -43 28 -7 15 -13 33
-12 40 4 32 -2 57 -15 57 -7 0 -16 14 -20 31 l-6 31 -26 -21 c-26 -21 -55 -28
-53 -13 0 4 4 16 8 27 6 15 3 23 -13 32 -20 12 -20 12 7 13 20 0 27 5 27 20 0
11 6 20 13 21 6 1 1 5 -13 9 -23 8 -24 9 -5 15 11 3 27 23 36 43 l16 37 11
-27 c16 -38 28 -42 66 -19 36 23 47 47 40 88 -3 15 1 30 10 37 12 9 13 20 5
60 -5 28 -7 58 -3 68 3 10 1 18 -5 18 -6 0 -12 -15 -12 -32 -1 -18 -2 -37 -4
-43 -1 -5 -3 -15 -3 -22 -2 -14 -28 -11 -44 5 -9 9 -8 12 4 12 12 0 17 16 22
72 7 77 22 110 32 70 7 -26 17 -28 34 -7 11 13 15 13 22 3 5 -8 7 -2 3 17 -2
17 1 32 7 37 18 11 23 1 23 -48z m1481 -19 c3 -28 24 -60 24 -37 0 7 7 12 15
12 8 0 15 7 15 16 0 20 20 39 43 40 21 2 22 -4 1 -27 -21 -24 -6 -73 24 -77
14 -2 23 -13 27 -33 4 -17 5 -32 3 -34 -8 -8 -53 22 -50 34 1 7 -6 9 -23 5
-17 -4 -25 -2 -25 7 0 8 -4 20 -9 28 -8 12 -12 12 -25 2 -22 -19 -21 -52 1
-44 12 5 15 2 10 -10 -4 -11 -2 -14 9 -10 8 3 14 -1 14 -10 0 -8 5 -17 11 -19
7 -2 4 -18 -10 -43 -21 -39 -13 -61 12 -36 15 15 27 14 27 -4 0 -17 -30 -35
-60 -35 -14 0 -19 4 -14 13 4 6 -1 5 -12 -4 -29 -24 -50 -29 -70 -15 -11 8
-15 20 -11 30 7 19 34 16 30 -3 -3 -12 10 -15 20 -4 4 3 -2 12 -13 20 -15 11
-17 18 -10 38 7 17 6 25 -1 25 -6 0 -9 6 -6 14 3 8 1 16 -4 18 -6 2 -13 30
-15 62 -4 43 -2 57 7 54 7 -2 13 -12 15 -22 4 -28 14 -32 14 -5 0 14 4 29 10
35 6 6 6 15 0 24 -8 13 -10 12 -10 -2 0 -10 -6 -18 -14 -18 -17 0 -27 33 -15
51 5 8 9 10 9 5 0 -6 5 -5 12 2 16 16 40 -7 44 -43z m-2201 25 c19 -8 19 -9 1
-9 -13 -1 -16 -4 -9 -13 12 -15 9 -69 -4 -93 -9 -14 -12 -15 -24 -3 -8 8 -20
13 -26 11 -18 -6 -53 16 -53 32 0 21 -18 18 -25 -4 -3 -10 -19 -21 -35 -25
-17 -3 -30 -11 -30 -17 0 -7 -7 -21 -17 -31 -21 -24 -4 -68 27 -68 20 0 20 -1
3 -24 -17 -23 -19 -24 -30 -8 -7 9 -16 22 -21 27 -4 6 -12 19 -16 30 -8 20 -8
20 -15 1 -7 -17 -9 -16 -19 14 -15 40 -15 43 -2 35 11 -7 13 4 11 50 -2 53 9
95 26 95 9 0 13 -6 10 -14 -4 -10 1 -13 19 -11 15 1 24 -3 24 -11 0 -8 4 -14
9 -14 5 0 8 8 7 18 -1 14 7 17 44 17 39 0 45 -3 48 -22 5 -31 29 -50 45 -34 9
9 9 14 -2 20 -11 7 -11 10 2 17 15 9 17 13 17 34 0 12 8 12 35 0z m6506 -27
c6 -16 12 -33 13 -40 4 -21 17 -28 26 -13 17 28 24 -40 7 -74 -11 -21 -16 -25
-16 -13 -1 10 -5 15 -11 12 -5 -3 -10 1 -10 9 0 20 -7 20 -26 2 -8 -8 -11 -21
-8 -29 3 -8 1 -18 -5 -22 -6 -3 -11 -13 -11 -21 0 -8 4 -13 9 -10 4 3 6 -6 3
-19 -2 -14 -9 -28 -14 -31 -16 -10 -36 16 -30 38 4 18 2 20 -21 16 -20 -4 -24
-2 -19 11 3 9 11 21 17 26 11 10 37 89 50 153 8 39 32 42 46 5z m-977 -45 c9
-17 16 -37 16 -45 0 -7 9 -13 20 -13 11 0 20 -4 20 -10 0 -5 14 -7 33 -3 32 6
32 6 14 -14 -12 -14 -16 -29 -11 -47 3 -14 9 -26 13 -26 11 0 33 42 25 48 -4
4 -9 1 -11 -5 -3 -7 -9 -13 -14 -13 -5 0 -4 9 3 20 7 11 18 20 25 20 7 0 13 4
13 9 0 11 38 2 46 -11 4 -6 -1 -8 -14 -4 -13 5 -22 1 -26 -10 -7 -18 9 -34 34
-34 10 0 11 -3 2 -12 -8 -8 -8 -17 -1 -30 5 -10 7 -22 4 -27 -3 -5 -1 -21 5
-36 8 -22 7 -27 -13 -35 -12 -5 -16 -9 -8 -9 10 -1 11 -4 2 -15 -8 -9 -10 -31
-5 -64 6 -50 -8 -98 -27 -87 -5 4 -9 1 -9 -4 0 -6 -5 -11 -12 -11 -6 0 -20 -8
-31 -17 -19 -17 -19 -17 -12 7 4 14 10 27 14 30 3 3 7 22 8 43 2 37 -10 50
-21 22 -7 -18 -65 -45 -97 -45 -30 0 -86 28 -93 47 -10 24 14 45 44 39 36 -7
51 9 39 42 -11 28 7 50 25 32 13 -13 39 -13 31 0 -3 6 -1 10 4 10 8 0 8 6 1
20 -5 11 -14 28 -19 38 -5 11 -5 25 0 35 8 13 6 15 -6 11 -12 -5 -14 -2 -8 12
3 11 11 22 17 26 6 4 -9 8 -33 8 -43 0 -44 -1 -27 -19 21 -23 24 -80 5 -92
-24 -15 -42 -11 -34 9 17 40 15 71 -7 86 l-21 15 26 6 c17 5 24 12 20 21 -3 8
1 14 11 14 9 0 16 -4 16 -10 0 -5 7 -7 15 -4 10 4 12 10 7 18 -9 11 -24 96
-17 96 2 0 11 -14 19 -32z m-6216 -48 c-6 -56 7 -67 21 -17 l9 32 1 -35 c0
-19 1 -54 1 -77 1 -23 5 -45 11 -48 18 -12 10 -33 -11 -28 -18 5 -19 2 -14
-26 4 -20 3 -31 -5 -31 -10 0 -16 27 -12 57 1 6 -3 14 -8 18 -6 3 -7 15 -1 29
6 16 5 23 -3 23 -34 -1 -46 4 -41 17 3 8 -7 18 -25 26 -36 15 -37 17 -11 50
15 20 21 23 31 13 11 -11 10 -13 -3 -13 -9 0 -18 -7 -22 -15 -3 -9 0 -15 9
-15 8 0 15 -4 15 -10 0 -5 5 -10 10 -10 6 0 10 22 10 49 0 46 7 58 34 60 5 1
6 -21 4 -49z m1697 9 c-3 -9 1 -29 9 -44 12 -23 12 -30 1 -41 -11 -12 -10 -18
8 -38 l22 -25 22 21 22 20 -6 -21 c-4 -15 -1 -21 12 -21 11 0 15 -5 11 -15 -7
-20 4 -19 19 1 10 15 14 14 37 -9 50 -50 11 -126 -64 -127 -30 0 -41 6 -58 31
-20 28 -24 29 -39 15 -23 -21 -31 -20 -31 4 0 13 7 20 18 20 10 0 29 11 42 25
13 14 30 23 37 21 7 -3 13 0 13 6 0 6 -11 8 -31 4 -17 -3 -37 -6 -45 -6 -7 0
-14 -8 -17 -17 -2 -10 -8 1 -12 25 -6 31 -12 42 -25 42 -10 0 -27 3 -37 6 -15
6 -16 4 -5 -7 6 -7 12 -17 12 -23 0 -5 -8 1 -19 13 -13 15 -24 19 -37 14 -18
-6 -18 -6 -2 10 9 9 14 25 11 37 -8 29 4 25 21 -7 10 -19 15 -23 16 -11 1 40
40 93 40 54 0 -8 3 -16 8 -19 4 -2 2 -3 -5 -1 -13 3 -25 -34 -12 -41 10 -7 41
8 58 29 10 12 9 21 -4 46 -17 32 -11 86 6 59 5 -8 6 -21 4 -30z m1616 -29 c6
-16 18 -30 26 -30 8 0 12 -4 8 -10 -3 -5 4 -19 15 -30 18 -18 21 -19 27 -4 3
9 0 19 -6 24 -10 5 -9 9 3 13 8 3 23 -1 32 -10 15 -16 15 -17 -2 -23 -13 -5
-15 -8 -5 -15 11 -6 11 -9 0 -16 -11 -6 -10 -9 4 -15 18 -7 24 -34 7 -34 -5 0
-10 5 -10 11 0 6 -14 -1 -31 -15 -36 -31 -62 -33 -88 -7 -28 28 -48 98 -33
113 9 9 12 5 12 -16 0 -15 4 -25 10 -21 6 3 10 1 10 -4 0 -19 19 -12 31 10 7
13 7 24 2 28 -6 3 -12 15 -15 26 -3 11 -9 28 -13 38 -4 9 -4 17 -1 17 4 0 12
-13 17 -30z m-2774 5 c-5 -11 -1 -12 16 -7 12 4 31 7 42 7 11 -1 25 3 32 7 15
12 27 -39 17 -76 -8 -34 5 -124 16 -107 4 7 10 9 13 4 12 -19 -10 -36 -38 -29
-21 5 -32 1 -56 -26 -24 -25 -32 -29 -39 -18 -7 11 -16 12 -44 3 -20 -6 -36
-7 -36 -2 0 5 6 9 13 9 7 1 5 6 -6 14 -16 13 -13 14 33 17 41 3 49 1 45 -11
-3 -8 4 -3 16 13 11 15 25 25 30 22 5 -3 18 -1 28 5 22 11 18 40 -5 40 -17 0
-34 31 -34 63 0 30 -10 40 -26 26 -9 -8 -15 -5 -23 10 -10 18 -6 51 6 51 3 0
3 -7 0 -15z m3117 -30 c-5 -28 -3 -35 9 -35 8 0 23 -3 31 -6 12 -4 15 -2 11 9
-5 11 0 13 19 10 17 -4 28 -15 36 -36 9 -28 8 -33 -12 -49 -26 -19 -66 -14
-85 11 -9 13 -14 14 -24 4 -11 -11 -10 -13 4 -13 9 0 17 -4 17 -10 0 -5 11
-17 24 -25 19 -13 29 -14 45 -5 16 8 21 8 21 -3 0 -32 -43 -42 -62 -13 -4 6
-10 7 -14 3 -4 -3 -1 -13 6 -22 7 -8 10 -15 7 -15 -3 0 -12 -3 -21 -6 -11 -4
-16 -1 -16 10 0 9 -5 16 -11 16 -5 0 -7 -4 -4 -10 3 -5 1 -10 -4 -10 -6 0 -11
5 -11 11 0 5 -5 7 -10 4 -6 -4 -7 -11 -4 -17 5 -7 2 -8 -5 -3 -8 4 -24 -1 -39
-12 -37 -27 -88 -53 -104 -52 -7 0 -3 4 10 10 13 5 21 13 18 18 -3 4 2 16 12
24 10 9 24 32 32 51 7 19 24 40 37 47 12 7 23 17 23 22 0 6 -9 2 -20 -8 -14
-13 -29 -16 -55 -12 -33 5 -47 -4 -25 -18 17 -10 11 -25 -10 -25 -11 0 -20 6
-20 14 0 22 24 63 36 59 5 -2 18 12 27 32 18 38 46 46 54 15 4 -16 7 -17 19
-5 8 7 14 17 14 22 0 14 30 53 41 53 6 0 7 -14 3 -35z m843 20 c10 -11 13 -26
9 -45 -6 -32 7 -40 22 -14 8 15 10 15 15 0 4 -9 -3 -23 -20 -36 -22 -17 -24
-22 -12 -37 13 -15 14 -13 19 12 3 16 11 30 19 33 10 3 12 0 8 -12 -5 -12 -1
-16 15 -16 20 0 18 -4 -16 -36 -32 -31 -43 -35 -69 -30 -47 10 -117 96 -77 96
8 0 23 37 25 60 0 9 30 39 38 40 5 0 15 -7 24 -15z m-6874 -12 c28 -15 37 -27
45 -62 12 -51 -3 -85 -41 -95 -101 -27 -163 48 -110 132 31 48 51 53 106 25z
m3307 -104 c0 -5 9 -18 20 -29 17 -17 18 -24 9 -41 -6 -12 -19 -24 -29 -26
-20 -5 -23 -43 -4 -43 7 0 10 -8 7 -19 -9 -34 -86 -54 -111 -29 -28 28 -1 108
36 108 18 1 57 70 40 70 -6 0 -5 7 2 15 12 15 30 12 30 -6z m4625 -15 c12 -16
17 -17 34 -6 17 10 21 10 21 -2 0 -8 -7 -16 -15 -20 -8 -3 -15 -13 -15 -23 0
-14 2 -15 9 -4 6 9 10 10 16 2 8 -15 -41 -75 -78 -94 -34 -17 -63 -12 -100 17
-28 22 -28 25 -17 66 6 24 19 54 28 68 14 21 21 24 59 19 27 -3 49 -12 58 -23z
m2957 -43 c15 -6 28 -23 36 -47 12 -42 5 -64 -30 -88 -28 -20 -102 -21 -117
-2 -14 17 -3 76 14 76 7 0 15 7 19 15 3 10 -1 15 -12 15 -13 0 -12 4 8 20 28
22 47 24 82 11z m831 -21 c3 -11 1 -23 -4 -26 -5 -3 -9 -18 -9 -34 0 -16 -4
-32 -10 -35 -5 -3 -10 -12 -10 -18 1 -7 9 -2 19 10 10 12 22 19 26 15 4 -4 5
10 2 31 -7 44 15 62 37 32 33 -46 -3 -135 -60 -149 -41 -11 -104 12 -114 40
-15 39 -11 77 10 104 17 21 21 23 30 10 6 -10 10 -11 10 -2 0 6 6 12 13 12 7
0 19 9 27 19 16 23 25 20 33 -9z m-7946 -3 c12 5 15 2 10 -9 -3 -10 4 -24 19
-37 35 -31 32 -52 -16 -84 -38 -26 -92 -22 -119 9 l-22 26 36 34 c20 19 43 34
51 34 10 0 13 7 9 28 -5 22 -4 24 5 10 6 -10 17 -15 27 -11z m3048 -7 c-3 -6
1 -7 10 -4 28 11 55 -25 55 -72 0 -62 -52 -109 -108 -98 -51 10 -41 35 11 28
39 -6 44 -4 55 20 16 35 15 36 -7 36 -10 0 -25 -10 -34 -22 l-15 -23 5 28 c3
16 1 27 -6 27 -6 0 -11 -4 -11 -10 0 -5 -4 -10 -10 -10 -5 0 -10 7 -10 15 0 8
4 15 9 15 5 0 11 9 14 20 3 11 0 20 -5 20 -7 0 -6 5 1 14 10 11 8 15 -6 19
-10 3 -1 5 20 6 23 1 36 -3 32 -9z m1353 -28 c17 -22 15 -77 -3 -112 -21 -41
-75 -42 -110 -4 -29 31 -31 44 -8 44 9 0 13 3 10 7 -4 3 -2 12 4 20 7 8 8 13
1 13 -18 0 -21 40 -4 50 23 13 94 1 110 -18z m-11286 -52 c23 -21 27 -28 13
-23 -17 6 -18 4 -8 -8 10 -12 10 -18 0 -29 -10 -10 -8 -12 7 -6 15 5 17 2 12
-19 -4 -14 -2 -25 4 -25 5 0 11 12 11 28 l2 27 4 -27 c7 -46 -24 -70 -88 -66
-48 3 -56 6 -76 37 -28 41 -29 64 -5 88 11 10 22 26 25 36 10 28 62 22 99 -13z
m6360 -120 c10 0 10 -2 0 -9 -10 -6 -8 -10 10 -15 22 -6 23 -7 4 -21 -25 -19
-46 -19 -74 1 -12 8 -22 10 -22 5 0 -6 5 -11 11 -11 8 0 7 -6 -2 -17 -8 -9 -9
-14 -3 -10 7 4 14 0 18 -8 3 -8 1 -17 -4 -20 -6 -4 -10 -11 -10 -17 0 -7 5 -6
15 2 8 6 24 9 37 5 l23 -6 -23 20 -24 21 27 10 c14 5 31 10 36 10 5 0 9 4 9
10 0 13 49 44 57 37 3 -4 1 -13 -6 -21 -14 -17 -5 -62 15 -70 22 -9 16 -39
-13 -60 -17 -12 -43 -19 -71 -19 -40 0 -49 4 -71 33 -14 18 -26 38 -27 44 0 6
-2 21 -2 34 -1 13 -11 26 -24 31 -16 6 -18 10 -8 16 9 5 15 4 18 -4 6 -17 32
6 32 30 0 29 18 32 22 2 2 -14 10 -28 18 -30 10 -3 11 -2 3 4 -6 5 -9 20 -6
38 6 27 7 28 14 7 5 -12 14 -22 21 -22z m2788 -95 c-10 -12 -8 -16 15 -25 14
-5 31 -10 36 -10 17 0 9 -19 -12 -31 -17 -9 -23 -8 -30 2 -7 11 -9 11 -9 -2 0
-9 -7 -19 -15 -23 -8 -3 -15 -14 -15 -24 0 -11 -7 -25 -15 -32 -22 -18 -18
-27 15 -33 36 -8 60 0 60 19 0 8 5 14 10 14 6 0 10 -5 10 -12 0 -6 9 -3 20 7
12 10 18 25 16 32 -7 18 26 71 42 66 6 -3 12 -9 12 -14 0 -6 -5 -7 -10 -4 -14
8 -2 -44 14 -64 9 -12 8 -12 -11 -2 -19 10 -24 8 -35 -9 -18 -29 -91 -70 -124
-70 -15 0 -32 7 -38 15 -8 11 -20 12 -46 7 -66 -15 -119 18 -62 39 16 6 22 5
22 -6 0 -9 6 -12 15 -9 19 8 20 34 1 34 -18 0 -11 63 11 96 7 11 10 23 7 27
-8 8 53 25 95 26 28 1 32 -1 21 -14z m1940 -83 c0 -58 -8 -73 -48 -96 -9 -6
-12 -2 -10 10 5 28 -37 31 -52 4 -9 -16 -8 -21 4 -26 17 -6 36 -55 36 -92 0
-14 11 -37 24 -51 14 -15 28 -38 31 -53 6 -24 4 -28 -14 -28 -47 0 -93 36
-128 100 -15 28 -17 44 -11 79 9 52 33 92 59 98 10 3 19 12 19 19 0 8 10 14
25 14 14 0 25 5 25 10 0 6 8 10 17 10 12 0 14 3 6 11 -12 12 -6 49 8 49 5 0 9
-26 9 -58z m2825 -14 c-4 -23 -3 -29 3 -19 8 11 10 7 9 -12 -1 -15 -5 -27 -9
-27 -5 0 -7 -3 -7 -7 4 -17 -14 -94 -22 -99 -5 -3 -7 -9 -4 -14 3 -5 1 -19 -5
-30 -11 -21 -23 -21 -107 -4 -30 6 -39 40 -17 65 9 10 23 19 30 19 17 0 72 56
71 72 -1 24 27 77 43 82 8 2 16 4 18 5 2 0 1 -14 -3 -31z m-5415 -106 c39 -15
112 -83 106 -99 -3 -8 -2 -12 2 -9 13 8 38 -53 40 -95 2 -37 -17 -57 -40 -43
-5 3 -16 -2 -23 -12 -13 -18 -14 -17 -15 9 0 22 -4 27 -25 27 -18 0 -25 5 -25
19 0 25 -26 47 -34 29 -3 -7 -3 -3 0 10 5 19 1 22 -24 22 -19 0 -32 6 -36 17
-6 15 -8 15 -16 3 -8 -12 -14 -11 -41 9 -18 14 -34 20 -36 14 -2 -6 -18 -3
-40 8 -20 10 -41 20 -47 22 -17 6 14 38 54 55 69 30 147 36 200 14z m-810
-222 c0 -5 7 -10 15 -10 8 0 15 -6 15 -14 0 -19 35 -24 84 -11 29 7 40 7 43
-1 2 -7 13 -10 23 -7 13 4 20 0 20 -9 0 -24 -23 -45 -63 -58 -56 -18 -135 8
-160 52 -12 21 -15 34 -8 36 6 2 11 10 11 18 0 8 5 14 10 14 6 0 10 -4 10 -10z"/>
<path d="M11782 2033 c14 -17 3 -29 -15 -15 -8 7 -18 7 -27 2 -12 -8 -12 -10
3 -10 10 0 15 -5 12 -10 -3 -6 1 -13 10 -16 9 -4 14 -12 11 -20 -3 -7 0 -14 6
-16 8 -3 6 -12 -5 -28 -16 -23 -16 -25 5 -47 24 -26 40 -30 36 -9 -2 8 2 15 7
15 6 0 13 10 17 23 5 21 6 20 8 -7 1 -16 2 -36 1 -42 -1 -7 2 -13 7 -13 16 0
21 27 12 59 -5 18 -5 33 1 36 12 8 12 55 -1 55 -5 0 -10 5 -10 11 0 8 4 8 14
0 7 -6 20 -9 28 -6 11 5 14 -1 13 -24 -1 -25 1 -29 12 -19 11 9 11 13 1 19
-10 7 -10 9 2 9 11 0 11 3 2 12 -16 16 -15 28 3 28 8 0 15 5 15 10 0 6 -7 10
-15 10 -8 0 -15 -4 -15 -10 0 -5 -4 -10 -10 -10 -5 0 -10 7 -10 15 0 8 -6 15
-14 15 -8 0 -16 -7 -20 -15 -3 -8 -12 -15 -20 -15 -9 0 -13 6 -11 13 4 8 -6
12 -30 13 -28 0 -32 -2 -23 -13z"/>
</g>
</svg>
